<?xml version="1.0" encoding="UTF-8" standalone="no"?>
<svg
   xmlns:dc="http://purl.org/dc/elements/1.1/"
   xmlns:cc="http://creativecommons.org/ns#"
   xmlns:rdf="http://www.w3.org/1999/02/22-rdf-syntax-ns#"
   xmlns:svg="http://www.w3.org/2000/svg"
   xmlns="http://www.w3.org/2000/svg"
   xmlns:sodipodi="http://sodipodi.sourceforge.net/DTD/sodipodi-0.dtd"
   xmlns:inkscape="http://www.inkscape.org/namespaces/inkscape"
   width="100mm"
   height="100mm"
   viewBox="0 0 100 100"
   version="1.1"
   id="svg8"
   inkscape:version="1.0.2 (e86c870879, 2021-01-15)"
   sodipodi:docname="folding_r_05.svg">
  <defs
     id="defs2">
    <marker
       style="overflow:visible;"
       id="marker15846"
       refX="0.0"
       refY="0.0"
       orient="auto"
       inkscape:stockid="Arrow2Lend"
       inkscape:isstock="true">
      <path
         transform="scale(1.1) rotate(180) translate(1,0)"
         d="M 8.7185878,4.0337352 L -2.2072895,0.016013256 L 8.7185884,-4.0017078 C 6.9730900,-1.6296469 6.9831476,1.6157441 8.7185878,4.0337352 z "
         style="fill-rule:evenodd;stroke-width:0.625;stroke-linejoin:round;stroke:#000000;stroke-opacity:1;fill:#000000;fill-opacity:1"
         id="path15844" />
    </marker>
    <marker
       style="overflow:visible;"
       id="marker15836"
       refX="0.0"
       refY="0.0"
       orient="auto"
       inkscape:stockid="Arrow2Lend"
       inkscape:isstock="true">
      <path
         transform="scale(1.1) rotate(180) translate(1,0)"
         d="M 8.7185878,4.0337352 L -2.2072895,0.016013256 L 8.7185884,-4.0017078 C 6.9730900,-1.6296469 6.9831476,1.6157441 8.7185878,4.0337352 z "
         style="fill-rule:evenodd;stroke-width:0.625;stroke-linejoin:round;stroke:#000000;stroke-opacity:1;fill:#000000;fill-opacity:1"
         id="path15834" />
    </marker>
    <marker
       style="overflow:visible;"
       id="marker15598"
       refX="0.0"
       refY="0.0"
       orient="auto"
       inkscape:stockid="Arrow2Lend"
       inkscape:isstock="true">
      <path
         transform="scale(1.1) rotate(180) translate(1,0)"
         d="M 8.7185878,4.0337352 L -2.2072895,0.016013256 L 8.7185884,-4.0017078 C 6.9730900,-1.6296469 6.9831476,1.6157441 8.7185878,4.0337352 z "
         style="fill-rule:evenodd;stroke-width:0.625;stroke-linejoin:round;stroke:#000000;stroke-opacity:1;fill:#000000;fill-opacity:1"
         id="path15596" />
    </marker>
    <marker
       style="overflow:visible;"
       id="marker15588"
       refX="0.0"
       refY="0.0"
       orient="auto"
       inkscape:stockid="Arrow2Lend"
       inkscape:isstock="true">
      <path
         transform="scale(1.1) rotate(180) translate(1,0)"
         d="M 8.7185878,4.0337352 L -2.2072895,0.016013256 L 8.7185884,-4.0017078 C 6.9730900,-1.6296469 6.9831476,1.6157441 8.7185878,4.0337352 z "
         style="fill-rule:evenodd;stroke-width:0.625;stroke-linejoin:round;stroke:#000000;stroke-opacity:1;fill:#000000;fill-opacity:1"
         id="path15586" />
    </marker>
    <marker
       style="overflow:visible;"
       id="marker15392"
       refX="0.0"
       refY="0.0"
       orient="auto"
       inkscape:stockid="Arrow2Lend"
       inkscape:isstock="true">
      <path
         transform="scale(1.1) rotate(180) translate(1,0)"
         d="M 8.7185878,4.0337352 L -2.2072895,0.016013256 L 8.7185884,-4.0017078 C 6.9730900,-1.6296469 6.9831476,1.6157441 8.7185878,4.0337352 z "
         style="fill-rule:evenodd;stroke-width:0.625;stroke-linejoin:round;stroke:#000000;stroke-opacity:1;fill:#000000;fill-opacity:1"
         id="path15390" />
    </marker>
    <marker
       style="overflow:visible;"
       id="marker15202"
       refX="0.0"
       refY="0.0"
       orient="auto"
       inkscape:stockid="Arrow2Lend"
       inkscape:isstock="true">
      <path
         transform="scale(1.1) rotate(180) translate(1,0)"
         d="M 8.7185878,4.0337352 L -2.2072895,0.016013256 L 8.7185884,-4.0017078 C 6.9730900,-1.6296469 6.9831476,1.6157441 8.7185878,4.0337352 z "
         style="fill-rule:evenodd;stroke-width:0.625;stroke-linejoin:round;stroke:#000000;stroke-opacity:1;fill:#000000;fill-opacity:1"
         id="path15200" />
    </marker>
    <marker
       style="overflow:visible"
       id="marker14838"
       refX="0.0"
       refY="0.0"
       orient="auto"
       inkscape:stockid="Arrow2Lstart"
       inkscape:isstock="true">
      <path
         transform="scale(1.1) translate(1,0)"
         d="M 8.7185878,4.0337352 L -2.2072895,0.016013256 L 8.7185884,-4.0017078 C 6.9730900,-1.6296469 6.9831476,1.6157441 8.7185878,4.0337352 z "
         style="fill-rule:evenodd;stroke-width:0.625;stroke-linejoin:round;stroke:#000000;stroke-opacity:1;fill:#000000;fill-opacity:1"
         id="path14836" />
    </marker>
    <marker
       style="overflow:visible"
       id="marker14828"
       refX="0.0"
       refY="0.0"
       orient="auto"
       inkscape:stockid="Arrow2Lstart"
       inkscape:isstock="true">
      <path
         transform="scale(1.1) translate(1,0)"
         d="M 8.7185878,4.0337352 L -2.2072895,0.016013256 L 8.7185884,-4.0017078 C 6.9730900,-1.6296469 6.9831476,1.6157441 8.7185878,4.0337352 z "
         style="fill-rule:evenodd;stroke-width:0.625;stroke-linejoin:round;stroke:#000000;stroke-opacity:1;fill:#000000;fill-opacity:1"
         id="path14826" />
    </marker>
    <marker
       style="overflow:visible"
       id="marker14818"
       refX="0.0"
       refY="0.0"
       orient="auto"
       inkscape:stockid="Arrow2Lstart"
       inkscape:isstock="true">
      <path
         transform="scale(1.1) translate(1,0)"
         d="M 8.7185878,4.0337352 L -2.2072895,0.016013256 L 8.7185884,-4.0017078 C 6.9730900,-1.6296469 6.9831476,1.6157441 8.7185878,4.0337352 z "
         style="fill-rule:evenodd;stroke-width:0.625;stroke-linejoin:round;stroke:#000000;stroke-opacity:1;fill:#000000;fill-opacity:1"
         id="path14816" />
    </marker>
    <marker
       style="overflow:visible"
       id="marker14646"
       refX="0.0"
       refY="0.0"
       orient="auto"
       inkscape:stockid="Arrow2Lstart"
       inkscape:isstock="true">
      <path
         transform="scale(1.1) translate(1,0)"
         d="M 8.7185878,4.0337352 L -2.2072895,0.016013256 L 8.7185884,-4.0017078 C 6.9730900,-1.6296469 6.9831476,1.6157441 8.7185878,4.0337352 z "
         style="fill-rule:evenodd;stroke-width:0.625;stroke-linejoin:round;stroke:#000000;stroke-opacity:1;fill:#000000;fill-opacity:1"
         id="path14644" />
    </marker>
    <marker
       style="overflow:visible"
       id="marker14480"
       refX="0.0"
       refY="0.0"
       orient="auto"
       inkscape:stockid="Arrow2Lstart"
       inkscape:isstock="true">
      <path
         transform="scale(1.1) translate(1,0)"
         d="M 8.7185878,4.0337352 L -2.2072895,0.016013256 L 8.7185884,-4.0017078 C 6.9730900,-1.6296469 6.9831476,1.6157441 8.7185878,4.0337352 z "
         style="fill-rule:evenodd;stroke-width:0.625;stroke-linejoin:round;stroke:#000000;stroke-opacity:1;fill:#000000;fill-opacity:1"
         id="path14478" />
    </marker>
    <marker
       style="overflow:visible"
       id="marker14320"
       refX="0.0"
       refY="0.0"
       orient="auto"
       inkscape:stockid="Arrow2Lstart"
       inkscape:isstock="true">
      <path
         transform="scale(1.1) translate(1,0)"
         d="M 8.7185878,4.0337352 L -2.2072895,0.016013256 L 8.7185884,-4.0017078 C 6.9730900,-1.6296469 6.9831476,1.6157441 8.7185878,4.0337352 z "
         style="fill-rule:evenodd;stroke-width:0.625;stroke-linejoin:round;stroke:#000000;stroke-opacity:1;fill:#000000;fill-opacity:1"
         id="path14318" />
    </marker>
    <inkscape:path-effect
       effect="spiro"
       id="path-effect13395"
       is_visible="true"
       lpeversion="1" />
    <inkscape:path-effect
       effect="spiro"
       id="path-effect13093"
       is_visible="true"
       lpeversion="1" />
    <marker
       style="overflow:visible"
       id="marker3659"
       refX="0.0"
       refY="0.0"
       orient="auto"
       inkscape:stockid="Arrow1Lstart"
       inkscape:isstock="true">
      <path
         transform="scale(0.8) translate(12.5,0)"
         style="fill-rule:evenodd;stroke:#000000;stroke-width:1pt;stroke-opacity:1;fill:#000000;fill-opacity:1"
         d="M 0.0,0.0 L 5.0,-5.0 L -12.5,0.0 L 5.0,5.0 L 0.0,0.0 z "
         id="path3657" />
    </marker>
    <marker
       style="overflow:visible;"
       id="marker3529"
       refX="0.0"
       refY="0.0"
       orient="auto"
       inkscape:stockid="Arrow1Lend"
       inkscape:isstock="true">
      <path
         transform="scale(0.8) rotate(180) translate(12.5,0)"
         style="fill-rule:evenodd;stroke:#000000;stroke-width:1pt;stroke-opacity:1;fill:#000000;fill-opacity:1"
         d="M 0.0,0.0 L 5.0,-5.0 L -12.5,0.0 L 5.0,5.0 L 0.0,0.0 z "
         id="path3527" />
    </marker>
    <rect
       x="60.320077"
       y="27.331002"
       width="61.250829"
       height="12.697482"
       id="rect3497" />
    <rect
       x="57.165831"
       y="26.318709"
       width="38.159077"
       height="17.702045"
       id="rect3491" />
    <rect
       x="36.184069"
       y="84.08157"
       width="56.881611"
       height="13.050641"
       id="rect3485" />
    <marker
       style="overflow:visible;"
       id="marker3237"
       refX="0.0"
       refY="0.0"
       orient="auto"
       inkscape:stockid="Arrow1Lend"
       inkscape:isstock="true">
      <path
         transform="scale(0.8) rotate(180) translate(12.5,0)"
         style="fill-rule:evenodd;stroke:#000000;stroke-width:1pt;stroke-opacity:1;fill:#000000;fill-opacity:1"
         d="M 0.0,0.0 L 5.0,-5.0 L -12.5,0.0 L 5.0,5.0 L 0.0,0.0 z "
         id="path3235" />
    </marker>
    <rect
       x="6.6241343"
       y="83.22306"
       width="45.35742"
       height="15.266187"
       id="rect3223" />
    <rect
       x="64.842665"
       y="31.447924"
       width="33.149278"
       height="10.074286"
       id="rect3217" />
    <marker
       style="overflow:visible;"
       id="marker2460"
       refX="0.0"
       refY="0.0"
       orient="auto"
       inkscape:stockid="Arrow1Lend"
       inkscape:isstock="true">
      <path
         transform="scale(0.8) rotate(180) translate(12.5,0)"
         style="fill-rule:evenodd;stroke:#000000;stroke-width:1pt;stroke-opacity:1;fill:#000000;fill-opacity:1"
         d="M 0.0,0.0 L 5.0,-5.0 L -12.5,0.0 L 5.0,5.0 L 0.0,0.0 z "
         id="path2458" />
    </marker>
    <marker
       style="overflow:visible"
       id="Arrow1Lstart"
       refX="0.0"
       refY="0.0"
       orient="auto"
       inkscape:stockid="Arrow1Lstart"
       inkscape:isstock="true">
      <path
         transform="scale(0.8) translate(12.5,0)"
         style="fill-rule:evenodd;stroke:#000000;stroke-width:1pt;stroke-opacity:1;fill:#000000;fill-opacity:1"
         d="M 0.0,0.0 L 5.0,-5.0 L -12.5,0.0 L 5.0,5.0 L 0.0,0.0 z "
         id="path1028" />
    </marker>
    <inkscape:path-effect
       effect="powerstroke"
       id="path-effect1024"
       is_visible="true"
       lpeversion="1"
       offset_points="1,0.909633"
       sort_points="true"
       interpolator_type="CubicBezierJohan"
       interpolator_beta="0.2"
       start_linecap_type="zerowidth"
       linejoin_type="extrp_arc"
       miter_limit="4"
       scale_width="1"
       end_linecap_type="zerowidth" />
    <rect
       x="29.57696"
       y="5.1730358"
       width="54.09775"
       height="17.282491"
       id="rect942" />
    <marker
       style="overflow:visible"
       id="Arrow1Lstart-0"
       refX="0"
       refY="0"
       orient="auto"
       inkscape:stockid="Arrow1Lstart"
       inkscape:isstock="true">
      <path
         transform="matrix(0.8,0,0,0.8,10,0)"
         style="fill:#000000;fill-opacity:1;fill-rule:evenodd;stroke:#000000;stroke-width:1pt;stroke-opacity:1"
         d="M 0,0 5,-5 -12.5,0 5,5 Z"
         id="path1028-9" />
    </marker>
    <marker
       style="overflow:visible"
       id="Arrow1Lend-3"
       refX="0"
       refY="0"
       orient="auto"
       inkscape:stockid="Arrow1Lend"
       inkscape:isstock="true">
      <path
         transform="matrix(-0.8,0,0,-0.8,-10,0)"
         style="fill:#000000;fill-opacity:1;fill-rule:evenodd;stroke:#000000;stroke-width:1pt;stroke-opacity:1"
         d="M 0,0 5,-5 -12.5,0 5,5 Z"
         id="path1031-6" />
    </marker>
    <marker
       style="overflow:visible"
       id="Arrow1Lstart-6"
       refX="0"
       refY="0"
       orient="auto"
       inkscape:stockid="Arrow1Lstart"
       inkscape:isstock="true">
      <path
         transform="matrix(0.8,0,0,0.8,10,0)"
         style="fill:#000000;fill-opacity:1;fill-rule:evenodd;stroke:#000000;stroke-width:1pt;stroke-opacity:1"
         d="M 0,0 5,-5 -12.5,0 5,5 Z"
         id="path1028-2" />
    </marker>
    <marker
       style="overflow:visible"
       id="Arrow1Lend-6"
       refX="0"
       refY="0"
       orient="auto"
       inkscape:stockid="Arrow1Lend"
       inkscape:isstock="true">
      <path
         transform="matrix(-0.8,0,0,-0.8,-10,0)"
         style="fill:#000000;fill-opacity:1;fill-rule:evenodd;stroke:#000000;stroke-width:1pt;stroke-opacity:1"
         d="M 0,0 5,-5 -12.5,0 5,5 Z"
         id="path1031-1" />
    </marker>
    <marker
       style="overflow:visible"
       id="Arrow1Lstart-7"
       refX="0"
       refY="0"
       orient="auto"
       inkscape:stockid="Arrow1Lstart"
       inkscape:isstock="true">
      <path
         transform="matrix(0.8,0,0,0.8,10,0)"
         style="fill:#000000;fill-opacity:1;fill-rule:evenodd;stroke:#000000;stroke-width:1pt;stroke-opacity:1"
         d="M 0,0 5,-5 -12.5,0 5,5 Z"
         id="path1028-92" />
    </marker>
    <marker
       style="overflow:visible"
       id="Arrow1Lend-0"
       refX="0"
       refY="0"
       orient="auto"
       inkscape:stockid="Arrow1Lend"
       inkscape:isstock="true">
      <path
         transform="matrix(-0.8,0,0,-0.8,-10,0)"
         style="fill:#000000;fill-opacity:1;fill-rule:evenodd;stroke:#000000;stroke-width:1pt;stroke-opacity:1"
         d="M 0,0 5,-5 -12.5,0 5,5 Z"
         id="path1031-2" />
    </marker>
    <marker
       style="overflow:visible"
       id="marker1324-7"
       refX="0"
       refY="0"
       orient="auto"
       inkscape:stockid="Arrow1Lstart"
       inkscape:isstock="true">
      <path
         transform="matrix(0.8,0,0,0.8,10,0)"
         style="fill:#000000;fill-opacity:1;fill-rule:evenodd;stroke:#000000;stroke-width:1pt;stroke-opacity:1"
         d="M 0,0 5,-5 -12.5,0 5,5 Z"
         id="path1322-5" />
    </marker>
    <marker
       style="overflow:visible"
       id="marker2560-9"
       refX="0"
       refY="0"
       orient="auto"
       inkscape:stockid="Arrow1Lend"
       inkscape:isstock="true">
      <path
         transform="matrix(-0.8,0,0,-0.8,-10,0)"
         style="fill:#000000;fill-opacity:1;fill-rule:evenodd;stroke:#000000;stroke-width:1pt;stroke-opacity:1"
         d="M 0,0 5,-5 -12.5,0 5,5 Z"
         id="path2558-2" />
    </marker>
    <marker
       style="overflow:visible"
       id="marker1324-8"
       refX="0"
       refY="0"
       orient="auto"
       inkscape:stockid="Arrow1Lstart"
       inkscape:isstock="true">
      <path
         transform="matrix(0.8,0,0,0.8,10,0)"
         style="fill:#000000;fill-opacity:1;fill-rule:evenodd;stroke:#000000;stroke-width:1pt;stroke-opacity:1"
         d="M 0,0 5,-5 -12.5,0 5,5 Z"
         id="path1322-9" />
    </marker>
    <marker
       style="overflow:visible"
       id="marker2560-7"
       refX="0"
       refY="0"
       orient="auto"
       inkscape:stockid="Arrow1Lend"
       inkscape:isstock="true">
      <path
         transform="matrix(-0.8,0,0,-0.8,-10,0)"
         style="fill:#000000;fill-opacity:1;fill-rule:evenodd;stroke:#000000;stroke-width:1pt;stroke-opacity:1"
         d="M 0,0 5,-5 -12.5,0 5,5 Z"
         id="path2558-3" />
    </marker>
    <marker
       style="overflow:visible"
       id="marker9692"
       refX="0"
       refY="0"
       orient="auto"
       inkscape:stockid="Arrow2Lstart"
       inkscape:isstock="true">
      <path
         transform="matrix(1.1,0,0,1.1,1.1,0)"
         d="M 8.7185878,4.0337352 -2.2072895,0.01601326 8.7185884,-4.0017078 c -1.7454984,2.3720609 -1.7354408,5.6174519 -6e-7,8.035443 z"
         style="fill:#000000;fill-opacity:1;fill-rule:evenodd;stroke:#000000;stroke-width:0.625;stroke-linejoin:round;stroke-opacity:1"
         id="path9690" />
    </marker>
    <marker
       style="overflow:visible"
       id="marker9954"
       refX="0"
       refY="0"
       orient="auto"
       inkscape:stockid="Arrow2Lend"
       inkscape:isstock="true">
      <path
         transform="matrix(-1.1,0,0,-1.1,-1.1,0)"
         d="M 8.7185878,4.0337352 -2.2072895,0.01601326 8.7185884,-4.0017078 c -1.7454984,2.3720609 -1.7354408,5.6174519 -6e-7,8.035443 z"
         style="fill:#000000;fill-opacity:1;fill-rule:evenodd;stroke:#000000;stroke-width:0.625;stroke-linejoin:round;stroke-opacity:1"
         id="path9952" />
    </marker>
    <inkscape:path-effect
       effect="spiro"
       id="path-effect9628"
       is_visible="true"
       lpeversion="1" />
    <marker
       style="overflow:visible"
       id="marker9692-2"
       refX="0"
       refY="0"
       orient="auto"
       inkscape:stockid="Arrow2Lstart"
       inkscape:isstock="true">
      <path
         transform="matrix(1.1,0,0,1.1,1.1,0)"
         d="M 8.7185878,4.0337352 -2.2072895,0.01601326 8.7185884,-4.0017078 c -1.7454984,2.3720609 -1.7354408,5.6174519 -6e-7,8.035443 z"
         style="fill:#000000;fill-opacity:1;fill-rule:evenodd;stroke:#000000;stroke-width:0.625;stroke-linejoin:round;stroke-opacity:1"
         id="path9690-3" />
    </marker>
    <marker
       style="overflow:visible"
       id="marker9954-7"
       refX="0"
       refY="0"
       orient="auto"
       inkscape:stockid="Arrow2Lend"
       inkscape:isstock="true">
      <path
         transform="matrix(-1.1,0,0,-1.1,-1.1,0)"
         d="M 8.7185878,4.0337352 -2.2072895,0.01601326 8.7185884,-4.0017078 c -1.7454984,2.3720609 -1.7354408,5.6174519 -6e-7,8.035443 z"
         style="fill:#000000;fill-opacity:1;fill-rule:evenodd;stroke:#000000;stroke-width:0.625;stroke-linejoin:round;stroke-opacity:1"
         id="path9952-5" />
    </marker>
    <marker
       style="overflow:visible"
       id="marker9692-2-2"
       refX="0"
       refY="0"
       orient="auto"
       inkscape:stockid="Arrow2Lstart"
       inkscape:isstock="true">
      <path
         transform="matrix(1.1,0,0,1.1,1.1,0)"
         d="M 8.7185878,4.0337352 -2.2072895,0.01601326 8.7185884,-4.0017078 c -1.7454984,2.3720609 -1.7354408,5.6174519 -6e-7,8.035443 z"
         style="fill:#000000;fill-opacity:1;fill-rule:evenodd;stroke:#000000;stroke-width:0.625;stroke-linejoin:round;stroke-opacity:1"
         id="path9690-3-2" />
    </marker>
    <marker
       style="overflow:visible"
       id="marker9954-7-8"
       refX="0"
       refY="0"
       orient="auto"
       inkscape:stockid="Arrow2Lend"
       inkscape:isstock="true">
      <path
         transform="matrix(-1.1,0,0,-1.1,-1.1,0)"
         d="M 8.7185878,4.0337352 -2.2072895,0.01601326 8.7185884,-4.0017078 c -1.7454984,2.3720609 -1.7354408,5.6174519 -6e-7,8.035443 z"
         style="fill:#000000;fill-opacity:1;fill-rule:evenodd;stroke:#000000;stroke-width:0.625;stroke-linejoin:round;stroke-opacity:1"
         id="path9952-5-9" />
    </marker>
    <rect
       x="6.6241341"
       y="83.223061"
       width="45.357422"
       height="15.266187"
       id="rect3223-3" />
    <rect
       x="6.6241341"
       y="83.223061"
       width="45.357422"
       height="15.266187"
       id="rect16413" />
  </defs>
  <sodipodi:namedview
     id="base"
     pagecolor="#ffffff"
     bordercolor="#666666"
     borderopacity="1.0"
     inkscape:pageopacity="0.0"
     inkscape:pageshadow="2"
     inkscape:zoom="2.8"
     inkscape:cx="201.22452"
     inkscape:cy="165.39128"
     inkscape:document-units="mm"
     inkscape:current-layer="layer1"
     inkscape:document-rotation="0"
     showgrid="false"
     width="50mm"
     inkscape:window-width="1916"
     inkscape:window-height="2121"
     inkscape:window-x="3840"
     inkscape:window-y="18"
     inkscape:window-maximized="1"
     showguides="true"
     inkscape:guide-bbox="true"
     inkscape:snap-grids="false"
     inkscape:snap-to-guides="false">
    <sodipodi:guide
       position="116.41667,17.790178"
       orientation="1,0"
       id="guide13572" />
    <sodipodi:guide
       position="60.854166,20.530506"
       orientation="0,-1"
       id="guide13574" />
    <sodipodi:guide
       position="59.814732,93.196428"
       orientation="1,0"
       id="guide13780" />
    <sodipodi:guide
       position="54.901041,91.779017"
       orientation="1,0"
       id="guide13782" />
    <sodipodi:guide
       position="49.892857,90.645089"
       orientation="1,0"
       id="guide13784" />
    <sodipodi:guide
       position="44.979166,89.51116"
       orientation="1,0"
       id="guide13786" />
    <sodipodi:guide
       position="39.781994,89.889136"
       orientation="1,0"
       id="guide13788" />
    <sodipodi:guide
       position="8.8824404,112.09524"
       orientation="1,0"
       id="guide13826" />
    <sodipodi:guide
       position="26.552827,73.825148"
       orientation="0,-1"
       id="guide13828" />
    <sodipodi:guide
       position="4.9136904,144.97917"
       orientation="0,-1"
       id="guide16400" />
    <sodipodi:guide
       position="6.8980654,136.38021"
       orientation="1,0"
       id="guide16402" />
    <sodipodi:guide
       position="4.4142746,37.384636"
       orientation="0,-1"
       id="guide16501" />
    <sodipodi:guide
       position="83.154761,55.776785"
       orientation="1,0"
       id="guide16599" />
    <sodipodi:guide
       position="63.223208,54.139104"
       orientation="1,0"
       id="guide16625" />
    <sodipodi:guide
       position="36.569196,34.988095"
       orientation="1,0"
       id="guide16651" />
    <sodipodi:guide
       position="16.630952,38.106399"
       orientation="1,0"
       id="guide16677" />
  </sodipodi:namedview>
  <metadata
     id="metadata5">
    <rdf:RDF>
      <cc:Work
         rdf:about="">
        <dc:format>image/svg+xml</dc:format>
        <dc:type
           rdf:resource="http://purl.org/dc/dcmitype/StillImage" />
        <dc:title />
      </cc:Work>
    </rdf:RDF>
  </metadata>
  <g
     inkscape:label="Layer 1"
     inkscape:groupmode="layer"
     id="layer1">
    <rect
       style="fill:#c0c0c0;fill-opacity:0.528156;stroke:#000000;stroke-width:0.4;stroke-linejoin:round;stroke-opacity:1"
       id="rect833"
       width="49.599998"
       height="24.6"
       x="25.200001"
       y="0.2"
       ry="7.3056979"
       rx="7.3056979" />
    <rect
       style="fill:#c0c0c0;fill-opacity:0.528156;stroke:#000000;stroke-width:0.400001;stroke-linejoin:round;stroke-opacity:1"
       id="rect833-3"
       width="39.599998"
       height="24.6"
       x="6.8670006"
       y="50.200001"
       ry="7.3056979"
       rx="7.3056979" />
    <rect
       style="fill:#c0c0c0;fill-opacity:0.528156;stroke:#000000;stroke-width:0.400001;stroke-linejoin:round;stroke-opacity:1"
       id="rect833-3-6"
       width="39.599998"
       height="24.6"
       x="53.533302"
       y="50.200001"
       ry="7.3056979"
       rx="7.3056979" />
    <text
       xml:space="preserve"
       id="text940"
       style="font-style:normal;font-weight:normal;font-size:8.46667px;line-height:1.25;font-family:sans-serif;letter-spacing:0px;word-spacing:0px;white-space:pre;shape-inside:url(#rect942);fill:#000000;fill-opacity:1;stroke:none;stroke-width:1.03222;"
       transform="matrix(0.93854899,0,0,1,-0.53858043,2.0381796)"><tspan
         x="29.576172"
         y="12.664847"><tspan
           style="shape-inside:url(#rect942)">File System</tspan></tspan></text>
    <rect
       style="fill:#353434;fill-opacity:0.559396;stroke:#000000;stroke-width:0.4;stroke-linejoin:round;stroke-miterlimit:4;stroke-dasharray:0.4, 0.4;stroke-dashoffset:0;stroke-opacity:1"
       id="rect833-3-5-9"
       width="15.599961"
       height="20.59992"
       x="75.532997"
       y="52.200077"
       ry="7.3056984"
       rx="7.3056974" />
    <rect
       style="fill:#353434;fill-opacity:0.559396;stroke:#000000;stroke-width:0.4;stroke-linejoin:round;stroke-miterlimit:4;stroke-dasharray:0.4, 0.4;stroke-dashoffset:0;stroke-opacity:1"
       id="rect833-3-5-9-1"
       width="15.599961"
       height="20.59992"
       x="8.8666658"
       y="52.200077"
       ry="7.3056984"
       rx="7.3056974" />
    <rect
       style="fill:#353434;fill-opacity:0.559396;stroke:#000000;stroke-width:0.4;stroke-linejoin:round;stroke-miterlimit:4;stroke-dasharray:0.4, 0.4;stroke-dashoffset:0;stroke-opacity:1"
       id="rect833-3-5-9-2"
       width="15.599961"
       height="20.59992"
       x="28.866671"
       y="52.200077"
       ry="7.3056984"
       rx="7.3056974" />
    <rect
       style="fill:#353434;fill-opacity:0.559396;stroke:#000000;stroke-width:0.4;stroke-linejoin:round;stroke-miterlimit:4;stroke-dasharray:0.4, 0.4;stroke-dashoffset:0;stroke-opacity:1"
       id="rect833-3-5-9-7"
       width="15.599961"
       height="20.59992"
       x="55.533333"
       y="52.200077"
       ry="7.3056984"
       rx="7.3056974" />
    <path
       style="fill:none;stroke:#000000;stroke-width:0.264999;stroke-linecap:butt;stroke-linejoin:miter;stroke-miterlimit:4;stroke-dasharray:none;stroke-opacity:1;marker-start:url(#marker14480);marker-end:url(#marker15392)"
       d="M 39.781329,26.176451 16.964405,62.092467"
       id="path1026" />
    <path
       style="fill:none;stroke:#000000;stroke-width:0.264998;stroke-linecap:butt;stroke-linejoin:miter;stroke-miterlimit:4;stroke-dasharray:none;stroke-opacity:1;marker-start:url(#marker14828);marker-end:url(#marker15836)"
       d="m 53.280658,26.701389 9.958949,35.585364"
       id="path1026-0" />
    <path
       style="fill:none;stroke:#000000;stroke-width:0.264999;stroke-linecap:butt;stroke-linejoin:miter;stroke-miterlimit:4;stroke-dasharray:none;stroke-opacity:1;marker-start:url(#marker14320);marker-end:url(#marker15202)"
       d="M 47.743791,26.444674 36.860711,62.222833"
       id="path1026-8" />
    <path
       style="fill:none;stroke:#000000;stroke-width:0.264999;stroke-linecap:butt;stroke-linejoin:miter;stroke-miterlimit:4;stroke-dasharray:none;stroke-opacity:1;marker-start:url(#marker14838);marker-end:url(#marker15846)"
       d="M 83.01726,62.312156 59.817458,26.481429"
       id="path1026-3" />
    <text
       xml:space="preserve"
       id="text3215"
       style="font-style:normal;font-weight:normal;font-size:8.46667px;line-height:1.25;font-family:sans-serif;letter-spacing:0px;word-spacing:0px;white-space:pre;shape-inside:url(#rect3217);fill:#000000;fill-opacity:1;stroke:none;stroke-width:1.32518;"
       transform="matrix(0.75461708,0,0,0.75461708,-42.201005,9.7051958)"><tspan
         x="64.841797"
         y="38.938284"><tspan
           style="font-size:8.46667px;stroke-width:1.32518">I/O ops.</tspan></tspan></text>
    <path
       style="fill:none;stroke:#000000;stroke-width:0.264583px;stroke-linecap:butt;stroke-linejoin:miter;stroke-opacity:1;marker-start:url(#marker14646);marker-end:"
       d="m 91.132957,72.799995 c 0,0 -2.192698,16.23693 -20.080216,15.784471"
       id="path3227"
       sodipodi:nodetypes="cc" />
    <text
       xml:space="preserve"
       id="text3483"
       style="font-style:normal;font-weight:normal;font-size:8.46667px;line-height:1.25;font-family:sans-serif;letter-spacing:0px;word-spacing:0px;white-space:pre;shape-inside:url(#rect3485);fill:#000000;fill-opacity:1;stroke:none;stroke-width:1.38522;"
       transform="matrix(0.72190588,0,0,0.72190588,5.462936,23.271212)"><tspan
         x="36.183594"
         y="91.57305"><tspan
           style="shape-inside:url(#rect3485)">Physical Res.</tspan></tspan></text>
    <text
       xml:space="preserve"
       id="text3495"
       style="font-style:normal;font-weight:normal;font-size:8.46667px;line-height:1.25;font-family:sans-serif;letter-spacing:0px;word-spacing:0px;white-space:pre;shape-inside:url(#rect3497);fill:#000000;fill-opacity:1;stroke:none;stroke-width:1.32302;"
       transform="matrix(0.76723997,0,0,0.74462395,-11.735554,70.572711)"><tspan
         x="60.320312"
         y="34.821097"><tspan
           style="shape-inside:url(#rect3497)">Virtual Res.</tspan></tspan></text>
    <path
       style="fill:none;stroke:#000000;stroke-width:0.264583px;stroke-linecap:butt;stroke-linejoin:miter;stroke-opacity:1;marker-start:url(#marker14818);marker-end:"
       d="m 91.219399,65.483602 c 0,0 23.447581,24.596436 -19.82571,30.848961"
       id="path3507"
       sodipodi:nodetypes="cc" />
    <path
       style="fill:none;stroke:#000000;stroke-width:0.264584px;stroke-linecap:butt;stroke-linejoin:miter;stroke-opacity:1;marker-start:url(#marker9692);marker-end:url(#marker9954)"
       d="m 66.100836,73.207898 c 0.679482,1.811028 1.926815,3.404303 3.521825,4.498588 1.595011,1.094285 3.530441,1.684602 5.464659,1.66675 1.90498,-0.01758 3.800439,-0.624512 5.361325,-1.716708 1.560886,-1.092196 2.780512,-2.664978 3.449723,-4.44863"
       id="path9626"
       inkscape:path-effect="#path-effect9628"
       inkscape:original-d="m 66.100836,73.207898 c 2.995687,2.055425 5.991174,4.110533 8.986484,6.165338 2.99531,2.054804 5.87422,-4.109913 8.811048,-6.165338" />
    <path
       style="fill:none;stroke:#000000;stroke-width:0.264584px;stroke-linecap:butt;stroke-linejoin:miter;stroke-opacity:1;marker-start:url(#marker9692-2);marker-end:url(#marker9954-7)"
       d="m 16.214576,73.094349 c 0.679482,1.811028 1.926815,3.404303 3.521825,4.498588 1.595011,1.094285 3.530441,1.684602 5.464659,1.66675 1.90498,-0.01758 3.800439,-0.624512 5.361325,-1.716708 1.560886,-1.092196 2.780512,-2.664978 3.449723,-4.44863"
       id="path9626-9"
       inkscape:path-effect="#path-effect13093"
       inkscape:original-d="m 16.214576,73.094349 c 2.995687,2.055425 5.991174,4.110533 8.986484,6.165338 2.99531,2.054804 5.87422,-4.109913 8.811048,-6.165338" />
    <path
       style="fill:none;stroke:#000000;stroke-width:0.264584px;stroke-linecap:butt;stroke-linejoin:miter;stroke-opacity:1;marker-start:url(#marker9692-2-2);marker-end:url(#marker9954-7-8)"
       d="m 41.275385,72.861921 c 0.679482,1.811028 1.926815,3.404303 3.521825,4.498588 1.595011,1.094285 3.530441,1.684602 5.464659,1.66675 1.90498,-0.01758 3.800439,-0.624512 5.361325,-1.716708 1.560886,-1.092196 2.780512,-2.664978 3.449723,-4.44863"
       id="path9626-9-7"
       inkscape:path-effect="#path-effect13395"
       inkscape:original-d="m 41.275385,72.861921 c 2.995687,2.055425 5.991174,4.110533 8.986484,6.165338 2.99531,2.054804 5.87422,-4.109913 8.811048,-6.165338" />
    <text
       xml:space="preserve"
       id="text3221-6"
       style="font-style:normal;font-weight:normal;font-size:8.46667px;line-height:1.25;font-family:sans-serif;letter-spacing:0px;word-spacing:0px;white-space:pre;shape-inside:url(#rect3223-3);fill:#000000;fill-opacity:1;stroke:none;stroke-width:1.42226;"
       transform="matrix(0.69951867,0,0,0.70671337,2.3091539,20.085097)"><tspan
         x="6.625"
         y="90.713675"><tspan
           style="shape-inside:url(#rect3223-3);stroke-width:1.42226">Comms.</tspan></tspan></text>
  </g>
</svg>
