<?xml version="1.0" encoding="UTF-8" standalone="no"?>
<svg
   xmlns:dc="http://purl.org/dc/elements/1.1/"
   xmlns:cc="http://creativecommons.org/ns#"
   xmlns:rdf="http://www.w3.org/1999/02/22-rdf-syntax-ns#"
   xmlns:svg="http://www.w3.org/2000/svg"
   xmlns="http://www.w3.org/2000/svg"
   xmlns:sodipodi="http://sodipodi.sourceforge.net/DTD/sodipodi-0.dtd"
   xmlns:inkscape="http://www.inkscape.org/namespaces/inkscape"
   width="100mm"
   height="100mm"
   viewBox="0 0 100 100"
   version="1.1"
   id="svg1463"
   inkscape:version="1.0.2 (e86c870879, 2021-01-15)"
   sodipodi:docname="nfs.svg">
  <defs
     id="defs1457">
    <rect
       x="65.307291"
       y="26.695797"
       width="34.591073"
       height="14.881797"
       id="rect3332" />
    <rect
       x="38.858255"
       y="27.921215"
       width="42.014093"
       height="13.308695"
       id="rect3326" />
    <rect
       x="6.6241341"
       y="83.223061"
       width="45.357422"
       height="15.266187"
       id="rect3223-5" />
    <rect
       x="6.6241341"
       y="83.223061"
       width="45.357422"
       height="15.266187"
       id="rect2131" />
    <marker
       style="overflow:visible"
       id="marker9692-0-8-9"
       refX="0"
       refY="0"
       orient="auto"
       inkscape:stockid="Arrow2Lstart"
       inkscape:isstock="true">
      <path
         transform="matrix(1.1,0,0,1.1,1.1,0)"
         d="M 8.7185878,4.0337352 -2.2072895,0.01601326 8.7185884,-4.0017078 c -1.7454984,2.3720609 -1.7354408,5.6174519 -6e-7,8.035443 z"
         style="fill:#000000;fill-opacity:1;fill-rule:evenodd;stroke:#000000;stroke-width:0.625;stroke-linejoin:round;stroke-opacity:1"
         id="path9690-6-7-4" />
    </marker>
    <marker
       style="overflow:visible"
       id="marker9954-2-9-7"
       refX="0"
       refY="0"
       orient="auto"
       inkscape:stockid="Arrow2Lend"
       inkscape:isstock="true">
      <path
         transform="matrix(-1.1,0,0,-1.1,-1.1,0)"
         d="M 8.7185878,4.0337352 -2.2072895,0.01601326 8.7185884,-4.0017078 c -1.7454984,2.3720609 -1.7354408,5.6174519 -6e-7,8.035443 z"
         style="fill:#000000;fill-opacity:1;fill-rule:evenodd;stroke:#000000;stroke-width:0.625;stroke-linejoin:round;stroke-opacity:1"
         id="path9952-6-2-8" />
    </marker>
    <inkscape:path-effect
       effect="spiro"
       id="path-effect18550"
       is_visible="true"
       lpeversion="1" />
    <marker
       style="overflow:visible"
       id="marker9692-0-8-1"
       refX="0"
       refY="0"
       orient="auto"
       inkscape:stockid="Arrow2Lstart"
       inkscape:isstock="true">
      <path
         transform="matrix(1.1,0,0,1.1,1.1,0)"
         d="M 8.7185878,4.0337352 -2.2072895,0.01601326 8.7185884,-4.0017078 c -1.7454984,2.3720609 -1.7354408,5.6174519 -6e-7,8.035443 z"
         style="fill:#000000;fill-opacity:1;fill-rule:evenodd;stroke:#000000;stroke-width:0.625;stroke-linejoin:round;stroke-opacity:1"
         id="path9690-6-7-2" />
    </marker>
    <marker
       style="overflow:visible"
       id="marker9954-2-9-9"
       refX="0"
       refY="0"
       orient="auto"
       inkscape:stockid="Arrow2Lend"
       inkscape:isstock="true">
      <path
         transform="matrix(-1.1,0,0,-1.1,-1.1,0)"
         d="M 8.7185878,4.0337352 -2.2072895,0.01601326 8.7185884,-4.0017078 c -1.7454984,2.3720609 -1.7354408,5.6174519 -6e-7,8.035443 z"
         style="fill:#000000;fill-opacity:1;fill-rule:evenodd;stroke:#000000;stroke-width:0.625;stroke-linejoin:round;stroke-opacity:1"
         id="path9952-6-2-3" />
    </marker>
    <inkscape:path-effect
       effect="spiro"
       id="path-effect18240"
       is_visible="true"
       lpeversion="1" />
    <marker
       style="overflow:visible"
       id="marker19958"
       refX="0"
       refY="0"
       orient="auto"
       inkscape:stockid="Arrow2Lstart"
       inkscape:isstock="true">
      <path
         transform="matrix(1.1,0,0,1.1,1.1,0)"
         d="M 8.7185878,4.0337352 -2.2072895,0.01601326 8.7185884,-4.0017078 c -1.7454984,2.3720609 -1.7354408,5.6174519 -6e-7,8.035443 z"
         style="fill:#000000;fill-opacity:1;fill-rule:evenodd;stroke:#000000;stroke-width:0.625;stroke-linejoin:round;stroke-opacity:1"
         id="path19956" />
    </marker>
    <rect
       x="60.320076"
       y="27.331001"
       width="61.250828"
       height="12.697482"
       id="rect3497" />
    <rect
       x="60.320076"
       y="27.331001"
       width="61.250828"
       height="12.697482"
       id="rect2146" />
    <rect
       x="36.184071"
       y="84.081573"
       width="56.881611"
       height="13.050641"
       id="rect3485" />
    <rect
       x="36.184071"
       y="84.081573"
       width="56.881611"
       height="13.050641"
       id="rect2149" />
    <marker
       style="overflow:visible"
       id="marker19786"
       refX="0"
       refY="0"
       orient="auto"
       inkscape:stockid="Arrow2Lstart"
       inkscape:isstock="true">
      <path
         transform="matrix(1.1,0,0,1.1,1.1,0)"
         d="M 8.7185878,4.0337352 -2.2072895,0.01601326 8.7185884,-4.0017078 c -1.7454984,2.3720609 -1.7354408,5.6174519 -6e-7,8.035443 z"
         style="fill:#000000;fill-opacity:1;fill-rule:evenodd;stroke:#000000;stroke-width:0.625;stroke-linejoin:round;stroke-opacity:1"
         id="path19784" />
    </marker>
    <rect
       x="64.842667"
       y="31.447924"
       width="33.149277"
       height="10.074286"
       id="rect3217" />
    <rect
       x="64.842667"
       y="31.447924"
       width="33.149277"
       height="10.074286"
       id="rect2154" />
    <marker
       style="overflow:visible"
       id="marker19968"
       refX="0"
       refY="0"
       orient="auto"
       inkscape:stockid="Arrow2Lstart"
       inkscape:isstock="true">
      <path
         transform="matrix(1.1,0,0,1.1,1.1,0)"
         d="M 8.7185878,4.0337352 -2.2072895,0.01601326 8.7185884,-4.0017078 c -1.7454984,2.3720609 -1.7354408,5.6174519 -6e-7,8.035443 z"
         style="fill:#000000;fill-opacity:1;fill-rule:evenodd;stroke:#000000;stroke-width:0.625;stroke-linejoin:round;stroke-opacity:1"
         id="path19966" />
    </marker>
    <marker
       style="overflow:visible"
       id="marker20976"
       refX="0"
       refY="0"
       orient="auto"
       inkscape:stockid="Arrow2Lend"
       inkscape:isstock="true">
      <path
         transform="matrix(-1.1,0,0,-1.1,-1.1,0)"
         d="M 8.7185878,4.0337352 -2.2072895,0.01601326 8.7185884,-4.0017078 c -1.7454984,2.3720609 -1.7354408,5.6174519 -6e-7,8.035443 z"
         style="fill:#000000;fill-opacity:1;fill-rule:evenodd;stroke:#000000;stroke-width:0.625;stroke-linejoin:round;stroke-opacity:1"
         id="path20974" />
    </marker>
    <marker
       style="overflow:visible"
       id="marker19460"
       refX="0"
       refY="0"
       orient="auto"
       inkscape:stockid="Arrow2Lstart"
       inkscape:isstock="true">
      <path
         transform="matrix(1.1,0,0,1.1,1.1,0)"
         d="M 8.7185878,4.0337352 -2.2072895,0.01601326 8.7185884,-4.0017078 c -1.7454984,2.3720609 -1.7354408,5.6174519 -6e-7,8.035443 z"
         style="fill:#000000;fill-opacity:1;fill-rule:evenodd;stroke:#000000;stroke-width:0.625;stroke-linejoin:round;stroke-opacity:1"
         id="path19458" />
    </marker>
    <marker
       style="overflow:visible"
       id="marker20342"
       refX="0"
       refY="0"
       orient="auto"
       inkscape:stockid="Arrow2Lend"
       inkscape:isstock="true">
      <path
         transform="matrix(-1.1,0,0,-1.1,-1.1,0)"
         d="M 8.7185878,4.0337352 -2.2072895,0.01601326 8.7185884,-4.0017078 c -1.7454984,2.3720609 -1.7354408,5.6174519 -6e-7,8.035443 z"
         style="fill:#000000;fill-opacity:1;fill-rule:evenodd;stroke:#000000;stroke-width:0.625;stroke-linejoin:round;stroke-opacity:1"
         id="path20340" />
    </marker>
    <marker
       style="overflow:visible"
       id="marker19978"
       refX="0"
       refY="0"
       orient="auto"
       inkscape:stockid="Arrow2Lstart"
       inkscape:isstock="true">
      <path
         transform="matrix(1.1,0,0,1.1,1.1,0)"
         d="M 8.7185878,4.0337352 -2.2072895,0.01601326 8.7185884,-4.0017078 c -1.7454984,2.3720609 -1.7354408,5.6174519 -6e-7,8.035443 z"
         style="fill:#000000;fill-opacity:1;fill-rule:evenodd;stroke:#000000;stroke-width:0.625;stroke-linejoin:round;stroke-opacity:1"
         id="path19976" />
    </marker>
    <marker
       style="overflow:visible"
       id="marker20986"
       refX="0"
       refY="0"
       orient="auto"
       inkscape:stockid="Arrow2Lend"
       inkscape:isstock="true">
      <path
         transform="matrix(-1.1,0,0,-1.1,-1.1,0)"
         d="M 8.7185878,4.0337352 -2.2072895,0.01601326 8.7185884,-4.0017078 c -1.7454984,2.3720609 -1.7354408,5.6174519 -6e-7,8.035443 z"
         style="fill:#000000;fill-opacity:1;fill-rule:evenodd;stroke:#000000;stroke-width:0.625;stroke-linejoin:round;stroke-opacity:1"
         id="path20984" />
    </marker>
    <marker
       style="overflow:visible"
       id="marker19620"
       refX="0"
       refY="0"
       orient="auto"
       inkscape:stockid="Arrow2Lstart"
       inkscape:isstock="true">
      <path
         transform="matrix(1.1,0,0,1.1,1.1,0)"
         d="M 8.7185878,4.0337352 -2.2072895,0.01601326 8.7185884,-4.0017078 c -1.7454984,2.3720609 -1.7354408,5.6174519 -6e-7,8.035443 z"
         style="fill:#000000;fill-opacity:1;fill-rule:evenodd;stroke:#000000;stroke-width:0.625;stroke-linejoin:round;stroke-opacity:1"
         id="path19618" />
    </marker>
    <marker
       style="overflow:visible"
       id="marker20532"
       refX="0"
       refY="0"
       orient="auto"
       inkscape:stockid="Arrow2Lend"
       inkscape:isstock="true">
      <path
         transform="matrix(-1.1,0,0,-1.1,-1.1,0)"
         d="M 8.7185878,4.0337352 -2.2072895,0.01601326 8.7185884,-4.0017078 c -1.7454984,2.3720609 -1.7354408,5.6174519 -6e-7,8.035443 z"
         style="fill:#000000;fill-opacity:1;fill-rule:evenodd;stroke:#000000;stroke-width:0.625;stroke-linejoin:round;stroke-opacity:1"
         id="path20530" />
    </marker>
    <rect
       x="29.57696"
       y="5.1730356"
       width="54.097752"
       height="17.282492"
       id="rect942" />
    <rect
       x="29.57696"
       y="5.1730356"
       width="54.097752"
       height="17.282492"
       id="rect2173" />
    <marker
       style="overflow:visible"
       id="marker9692-0-8"
       refX="0"
       refY="0"
       orient="auto"
       inkscape:stockid="Arrow2Lstart"
       inkscape:isstock="true">
      <path
         transform="matrix(1.1,0,0,1.1,1.1,0)"
         d="M 8.7185878,4.0337352 -2.2072895,0.01601326 8.7185884,-4.0017078 c -1.7454984,2.3720609 -1.7354408,5.6174519 -6e-7,8.035443 z"
         style="fill:#000000;fill-opacity:1;fill-rule:evenodd;stroke:#000000;stroke-width:0.625;stroke-linejoin:round;stroke-opacity:1"
         id="path9690-6-7" />
    </marker>
    <marker
       style="overflow:visible"
       id="marker9954-2-9"
       refX="0"
       refY="0"
       orient="auto"
       inkscape:stockid="Arrow2Lend"
       inkscape:isstock="true">
      <path
         transform="matrix(-1.1,0,0,-1.1,-1.1,0)"
         d="M 8.7185878,4.0337352 -2.2072895,0.01601326 8.7185884,-4.0017078 c -1.7454984,2.3720609 -1.7354408,5.6174519 -6e-7,8.035443 z"
         style="fill:#000000;fill-opacity:1;fill-rule:evenodd;stroke:#000000;stroke-width:0.625;stroke-linejoin:round;stroke-opacity:1"
         id="path9952-6-2" />
    </marker>
    <inkscape:path-effect
       effect="spiro"
       id="path-effect11195"
       is_visible="true"
       lpeversion="1" />
  </defs>
  <sodipodi:namedview
     id="base"
     pagecolor="#ffffff"
     bordercolor="#666666"
     borderopacity="1.0"
     inkscape:pageopacity="0.0"
     inkscape:pageshadow="2"
     inkscape:zoom="2.8"
     inkscape:cx="311.85267"
     inkscape:cy="200.86514"
     inkscape:document-units="mm"
     inkscape:current-layer="layer1"
     inkscape:document-rotation="0"
     showgrid="false"
     showguides="true"
     inkscape:guide-bbox="true"
     inkscape:window-width="1916"
     inkscape:window-height="2121"
     inkscape:window-x="3840"
     inkscape:window-y="18"
     inkscape:window-maximized="1">
    <sodipodi:guide
       position="-42.049851,133.63988"
       orientation="0,-1"
       id="guide3300" />
    <sodipodi:guide
       position="49.609375,107.84301"
       orientation="1,0"
       id="guide3302" />
  </sodipodi:namedview>
  <metadata
     id="metadata1460">
    <rdf:RDF>
      <cc:Work
         rdf:about="">
        <dc:format>image/svg+xml</dc:format>
        <dc:type
           rdf:resource="http://purl.org/dc/dcmitype/StillImage" />
        <dc:title />
      </cc:Work>
    </rdf:RDF>
  </metadata>
  <g
     inkscape:label="Layer 1"
     inkscape:groupmode="layer"
     id="layer1">
    <rect
       style="fill:#c0c0c0;fill-opacity:0.528156;stroke:#000000;stroke-width:0.400001;stroke-linejoin:round;stroke-opacity:1"
       id="rect833"
       width="75.803154"
       height="37.70158"
       x="11.675977"
       y="12.2615"
       ry="7.3056974"
       rx="7.3056979" />
    <rect
       style="fill:#c0c0c0;fill-opacity:0.528156;stroke:#000000;stroke-width:0.4;stroke-linejoin:round;stroke-opacity:1"
       id="rect833-3"
       width="19.6"
       height="24.6"
       x="0.1791379"
       y="75.363091"
       ry="7.3056979"
       rx="7.3056979" />
    <rect
       style="fill:#c0c0c0;fill-opacity:0.528156;stroke:#000000;stroke-width:0.4;stroke-linejoin:round;stroke-opacity:1"
       id="rect833-3-5"
       width="19.6"
       height="24.6"
       x="80.179138"
       y="75.363091"
       ry="7.3056979"
       rx="7.3056979" />
    <rect
       style="fill:#c0c0c0;fill-opacity:0.528156;stroke:#000000;stroke-width:0.4;stroke-linejoin:round;stroke-opacity:1"
       id="rect833-3-6"
       width="19.6"
       height="24.6"
       x="53.512436"
       y="75.363091"
       ry="7.3056979"
       rx="7.3056979" />
    <rect
       style="fill:#c0c0c0;fill-opacity:0.528156;stroke:#000000;stroke-width:0.4;stroke-linejoin:round;stroke-opacity:1"
       id="rect833-3-2"
       width="19.6"
       height="24.6"
       x="26.845737"
       y="75.363091"
       ry="7.3056979"
       rx="7.3056979" />
    <text
       xml:space="preserve"
       id="text940"
       style="font-style:normal;font-weight:normal;font-size:8.46667px;line-height:1.25;font-family:sans-serif;letter-spacing:0px;word-spacing:0px;white-space:pre;shape-inside:url(#rect942);fill:#000000;fill-opacity:1;stroke:none;stroke-width:1.03222;"
       transform="matrix(0.93854899,0,0,1,-0.76912382,-3.8954888)"><tspan
         x="29.576172"
         y="12.664847"><tspan
           style="shape-inside:url(#rect942)">File System</tspan></tspan></text>
    <path
       style="fill:none;stroke:#000000;stroke-width:0.264999;stroke-linecap:butt;stroke-linejoin:miter;stroke-miterlimit:4;stroke-dasharray:none;stroke-opacity:1;marker-start:url(#marker19620);marker-end:url(#marker20532)"
       d="M 41.662798,45.658458 10.045691,87.314414"
       id="path1026" />
    <path
       style="fill:none;stroke:#000000;stroke-width:0.264999;stroke-linecap:butt;stroke-linejoin:miter;stroke-miterlimit:4;stroke-dasharray:none;stroke-opacity:1;marker-start:url(#marker19978);marker-end:url(#marker20986)"
       d="m 52.459609,47.380416 10.71102,39.487875"
       id="path1026-0" />
    <path
       style="fill:none;stroke:#000000;stroke-width:0.264999;stroke-linecap:butt;stroke-linejoin:miter;stroke-miterlimit:4;stroke-dasharray:none;stroke-opacity:1;marker-start:url(#marker19460);marker-end:url(#marker20342)"
       d="m 46.354468,47.230018 -9.588733,39.72889"
       id="path1026-8" />
    <path
       style="fill:none;stroke:#000000;stroke-width:0.264999;stroke-linecap:butt;stroke-linejoin:miter;stroke-miterlimit:4;stroke-dasharray:none;stroke-opacity:1;marker-start:url(#marker19968);marker-end:url(#marker20976)"
       d="M 89.900362,87.349851 57.434985,45.747064"
       id="path1026-3" />
    <text
       xml:space="preserve"
       id="text3215"
       style="font-style:normal;font-weight:normal;font-size:8.46667px;line-height:1.25;font-family:sans-serif;letter-spacing:0px;word-spacing:0px;white-space:pre;shape-inside:url(#rect3217);fill:#000000;fill-opacity:1;stroke:none;stroke-width:1.32518;"
       transform="matrix(0.75461708,0,0,0.75461708,-47.379235,36.692746)"><tspan
         x="64.841797"
         y="38.938284"><tspan
           style="font-size:8.46667px;stroke-width:1.32518">I/O ops.</tspan></tspan></text>
    <rect
       style="fill:#474747;fill-opacity:0.52815598;stroke:#000000;stroke-width:0.4;stroke-linejoin:round;stroke-opacity:1"
       id="rect833-3-2-3"
       width="19.6"
       height="24.6"
       x="39.734821"
       y="21.940226"
       ry="7.3056979"
       rx="7.3056979" />
    <text
       xml:space="preserve"
       id="text3324"
       style="font-style:normal;font-weight:normal;font-size:10.5833px;line-height:1.25;font-family:sans-serif;letter-spacing:0px;word-spacing:0px;white-space:pre;shape-inside:url(#rect3326);fill:#000000;fill-opacity:1;stroke:none;stroke-width:1.93226;"
       transform="matrix(0.51752959,0,0,0.51752959,18.865058,1.654109)"><tspan
         x="38.857422"
         y="37.285615"><tspan
           style="stroke-width:1.93226">IO node</tspan></tspan></text>
  </g>
</svg>
