<?xml version="1.0" encoding="UTF-8" standalone="no"?>
<svg
   xmlns:dc="http://purl.org/dc/elements/1.1/"
   xmlns:cc="http://creativecommons.org/ns#"
   xmlns:rdf="http://www.w3.org/1999/02/22-rdf-syntax-ns#"
   xmlns:svg="http://www.w3.org/2000/svg"
   xmlns="http://www.w3.org/2000/svg"
   xmlns:sodipodi="http://sodipodi.sourceforge.net/DTD/sodipodi-0.dtd"
   xmlns:inkscape="http://www.inkscape.org/namespaces/inkscape"
   width="100mm"
   height="100mm"
   viewBox="0 0 100 100"
   version="1.1"
   id="svg8"
   inkscape:version="1.0.2 (e86c870879, 2021-01-15)"
   sodipodi:docname="folding_r_1.svg">
  <defs
     id="defs2">
    <marker
       style="overflow:visible"
       id="marker3659"
       refX="0.0"
       refY="0.0"
       orient="auto"
       inkscape:stockid="Arrow1Lstart"
       inkscape:isstock="true">
      <path
         transform="scale(0.8) translate(12.5,0)"
         style="fill-rule:evenodd;stroke:#000000;stroke-width:1pt;stroke-opacity:1;fill:#000000;fill-opacity:1"
         d="M 0.0,0.0 L 5.0,-5.0 L -12.5,0.0 L 5.0,5.0 L 0.0,0.0 z "
         id="path3657" />
    </marker>
    <marker
       style="overflow:visible;"
       id="marker3529"
       refX="0.0"
       refY="0.0"
       orient="auto"
       inkscape:stockid="Arrow1Lend"
       inkscape:isstock="true">
      <path
         transform="scale(0.8) rotate(180) translate(12.5,0)"
         style="fill-rule:evenodd;stroke:#000000;stroke-width:1pt;stroke-opacity:1;fill:#000000;fill-opacity:1"
         d="M 0.0,0.0 L 5.0,-5.0 L -12.5,0.0 L 5.0,5.0 L 0.0,0.0 z "
         id="path3527" />
    </marker>
    <rect
       x="60.320077"
       y="27.331002"
       width="61.250829"
       height="12.697482"
       id="rect3497" />
    <rect
       x="57.165831"
       y="26.318709"
       width="38.159077"
       height="17.702045"
       id="rect3491" />
    <rect
       x="36.184069"
       y="84.08157"
       width="56.881611"
       height="13.050641"
       id="rect3485" />
    <marker
       style="overflow:visible"
       id="marker3367"
       refX="0.0"
       refY="0.0"
       orient="auto"
       inkscape:stockid="Arrow1Lstart"
       inkscape:isstock="true"
       inkscape:collect="always">
      <path
         transform="scale(0.8) translate(12.5,0)"
         style="fill-rule:evenodd;stroke:#000000;stroke-width:1pt;stroke-opacity:1;fill:#000000;fill-opacity:1"
         d="M 0.0,0.0 L 5.0,-5.0 L -12.5,0.0 L 5.0,5.0 L 0.0,0.0 z "
         id="path3365" />
    </marker>
    <marker
       style="overflow:visible;"
       id="marker3237"
       refX="0.0"
       refY="0.0"
       orient="auto"
       inkscape:stockid="Arrow1Lend"
       inkscape:isstock="true">
      <path
         transform="scale(0.8) rotate(180) translate(12.5,0)"
         style="fill-rule:evenodd;stroke:#000000;stroke-width:1pt;stroke-opacity:1;fill:#000000;fill-opacity:1"
         d="M 0.0,0.0 L 5.0,-5.0 L -12.5,0.0 L 5.0,5.0 L 0.0,0.0 z "
         id="path3235" />
    </marker>
    <rect
       x="6.6241343"
       y="83.22306"
       width="45.35742"
       height="15.266187"
       id="rect3223" />
    <rect
       x="64.842665"
       y="31.447924"
       width="33.149278"
       height="10.074286"
       id="rect3217" />
    <marker
       style="overflow:visible;"
       id="marker2560"
       refX="0.0"
       refY="0.0"
       orient="auto"
       inkscape:stockid="Arrow1Lend"
       inkscape:isstock="true"
       inkscape:collect="always">
      <path
         transform="scale(0.8) rotate(180) translate(12.5,0)"
         style="fill-rule:evenodd;stroke:#000000;stroke-width:1pt;stroke-opacity:1;fill:#000000;fill-opacity:1"
         d="M 0.0,0.0 L 5.0,-5.0 L -12.5,0.0 L 5.0,5.0 L 0.0,0.0 z "
         id="path2558" />
    </marker>
    <marker
       style="overflow:visible;"
       id="marker2460"
       refX="0.0"
       refY="0.0"
       orient="auto"
       inkscape:stockid="Arrow1Lend"
       inkscape:isstock="true">
      <path
         transform="scale(0.8) rotate(180) translate(12.5,0)"
         style="fill-rule:evenodd;stroke:#000000;stroke-width:1pt;stroke-opacity:1;fill:#000000;fill-opacity:1"
         d="M 0.0,0.0 L 5.0,-5.0 L -12.5,0.0 L 5.0,5.0 L 0.0,0.0 z "
         id="path2458" />
    </marker>
    <marker
       style="overflow:visible;"
       id="Arrow1Lend"
       refX="0.0"
       refY="0.0"
       orient="auto"
       inkscape:stockid="Arrow1Lend"
       inkscape:isstock="true"
       inkscape:collect="always">
      <path
         transform="scale(0.8) rotate(180) translate(12.5,0)"
         style="fill-rule:evenodd;stroke:#000000;stroke-width:1pt;stroke-opacity:1;fill:#000000;fill-opacity:1"
         d="M 0.0,0.0 L 5.0,-5.0 L -12.5,0.0 L 5.0,5.0 L 0.0,0.0 z "
         id="path1031" />
    </marker>
    <marker
       style="overflow:visible"
       id="marker1324"
       refX="0.0"
       refY="0.0"
       orient="auto"
       inkscape:stockid="Arrow1Lstart"
       inkscape:isstock="true"
       inkscape:collect="always">
      <path
         transform="scale(0.8) translate(12.5,0)"
         style="fill-rule:evenodd;stroke:#000000;stroke-width:1pt;stroke-opacity:1;fill:#000000;fill-opacity:1"
         d="M 0.0,0.0 L 5.0,-5.0 L -12.5,0.0 L 5.0,5.0 L 0.0,0.0 z "
         id="path1322" />
    </marker>
    <marker
       style="overflow:visible"
       id="Arrow1Lstart"
       refX="0.0"
       refY="0.0"
       orient="auto"
       inkscape:stockid="Arrow1Lstart"
       inkscape:isstock="true">
      <path
         transform="scale(0.8) translate(12.5,0)"
         style="fill-rule:evenodd;stroke:#000000;stroke-width:1pt;stroke-opacity:1;fill:#000000;fill-opacity:1"
         d="M 0.0,0.0 L 5.0,-5.0 L -12.5,0.0 L 5.0,5.0 L 0.0,0.0 z "
         id="path1028" />
    </marker>
    <inkscape:path-effect
       effect="powerstroke"
       id="path-effect1024"
       is_visible="true"
       lpeversion="1"
       offset_points="1,0.909633"
       sort_points="true"
       interpolator_type="CubicBezierJohan"
       interpolator_beta="0.2"
       start_linecap_type="zerowidth"
       linejoin_type="extrp_arc"
       miter_limit="4"
       scale_width="1"
       end_linecap_type="zerowidth" />
    <rect
       x="29.57696"
       y="5.1730358"
       width="54.09775"
       height="17.282491"
       id="rect942" />
    <marker
       style="overflow:visible"
       id="Arrow1Lstart-0"
       refX="0"
       refY="0"
       orient="auto"
       inkscape:stockid="Arrow1Lstart"
       inkscape:isstock="true">
      <path
         transform="matrix(0.8,0,0,0.8,10,0)"
         style="fill:#000000;fill-opacity:1;fill-rule:evenodd;stroke:#000000;stroke-width:1pt;stroke-opacity:1"
         d="M 0,0 5,-5 -12.5,0 5,5 Z"
         id="path1028-9" />
    </marker>
    <marker
       style="overflow:visible"
       id="Arrow1Lend-3"
       refX="0"
       refY="0"
       orient="auto"
       inkscape:stockid="Arrow1Lend"
       inkscape:isstock="true">
      <path
         transform="matrix(-0.8,0,0,-0.8,-10,0)"
         style="fill:#000000;fill-opacity:1;fill-rule:evenodd;stroke:#000000;stroke-width:1pt;stroke-opacity:1"
         d="M 0,0 5,-5 -12.5,0 5,5 Z"
         id="path1031-6" />
    </marker>
    <marker
       style="overflow:visible"
       id="Arrow1Lstart-6"
       refX="0"
       refY="0"
       orient="auto"
       inkscape:stockid="Arrow1Lstart"
       inkscape:isstock="true">
      <path
         transform="matrix(0.8,0,0,0.8,10,0)"
         style="fill:#000000;fill-opacity:1;fill-rule:evenodd;stroke:#000000;stroke-width:1pt;stroke-opacity:1"
         d="M 0,0 5,-5 -12.5,0 5,5 Z"
         id="path1028-2" />
    </marker>
    <marker
       style="overflow:visible"
       id="Arrow1Lend-6"
       refX="0"
       refY="0"
       orient="auto"
       inkscape:stockid="Arrow1Lend"
       inkscape:isstock="true">
      <path
         transform="matrix(-0.8,0,0,-0.8,-10,0)"
         style="fill:#000000;fill-opacity:1;fill-rule:evenodd;stroke:#000000;stroke-width:1pt;stroke-opacity:1"
         d="M 0,0 5,-5 -12.5,0 5,5 Z"
         id="path1031-1" />
    </marker>
    <marker
       style="overflow:visible"
       id="Arrow1Lstart-7"
       refX="0"
       refY="0"
       orient="auto"
       inkscape:stockid="Arrow1Lstart"
       inkscape:isstock="true">
      <path
         transform="matrix(0.8,0,0,0.8,10,0)"
         style="fill:#000000;fill-opacity:1;fill-rule:evenodd;stroke:#000000;stroke-width:1pt;stroke-opacity:1"
         d="M 0,0 5,-5 -12.5,0 5,5 Z"
         id="path1028-92" />
    </marker>
    <marker
       style="overflow:visible"
       id="Arrow1Lend-0"
       refX="0"
       refY="0"
       orient="auto"
       inkscape:stockid="Arrow1Lend"
       inkscape:isstock="true">
      <path
         transform="matrix(-0.8,0,0,-0.8,-10,0)"
         style="fill:#000000;fill-opacity:1;fill-rule:evenodd;stroke:#000000;stroke-width:1pt;stroke-opacity:1"
         d="M 0,0 5,-5 -12.5,0 5,5 Z"
         id="path1031-2" />
    </marker>
    <marker
       style="overflow:visible"
       id="marker1324-7"
       refX="0"
       refY="0"
       orient="auto"
       inkscape:stockid="Arrow1Lstart"
       inkscape:isstock="true">
      <path
         transform="matrix(0.8,0,0,0.8,10,0)"
         style="fill:#000000;fill-opacity:1;fill-rule:evenodd;stroke:#000000;stroke-width:1pt;stroke-opacity:1"
         d="M 0,0 5,-5 -12.5,0 5,5 Z"
         id="path1322-5" />
    </marker>
    <marker
       style="overflow:visible"
       id="marker2560-9"
       refX="0"
       refY="0"
       orient="auto"
       inkscape:stockid="Arrow1Lend"
       inkscape:isstock="true">
      <path
         transform="matrix(-0.8,0,0,-0.8,-10,0)"
         style="fill:#000000;fill-opacity:1;fill-rule:evenodd;stroke:#000000;stroke-width:1pt;stroke-opacity:1"
         d="M 0,0 5,-5 -12.5,0 5,5 Z"
         id="path2558-2" />
    </marker>
    <marker
       style="overflow:visible"
       id="marker1324-8"
       refX="0"
       refY="0"
       orient="auto"
       inkscape:stockid="Arrow1Lstart"
       inkscape:isstock="true">
      <path
         transform="matrix(0.8,0,0,0.8,10,0)"
         style="fill:#000000;fill-opacity:1;fill-rule:evenodd;stroke:#000000;stroke-width:1pt;stroke-opacity:1"
         d="M 0,0 5,-5 -12.5,0 5,5 Z"
         id="path1322-9" />
    </marker>
    <marker
       style="overflow:visible"
       id="marker2560-7"
       refX="0"
       refY="0"
       orient="auto"
       inkscape:stockid="Arrow1Lend"
       inkscape:isstock="true">
      <path
         transform="matrix(-0.8,0,0,-0.8,-10,0)"
         style="fill:#000000;fill-opacity:1;fill-rule:evenodd;stroke:#000000;stroke-width:1pt;stroke-opacity:1"
         d="M 0,0 5,-5 -12.5,0 5,5 Z"
         id="path2558-3" />
    </marker>
  </defs>
  <sodipodi:namedview
     id="base"
     pagecolor="#ffffff"
     bordercolor="#666666"
     borderopacity="1.0"
     inkscape:pageopacity="0.0"
     inkscape:pageshadow="2"
     inkscape:zoom="2.8"
     inkscape:cx="267.71306"
     inkscape:cy="165.39128"
     inkscape:document-units="mm"
     inkscape:current-layer="layer1"
     inkscape:document-rotation="0"
     showgrid="false"
     width="50mm"
     inkscape:window-width="3836"
     inkscape:window-height="2121"
     inkscape:window-x="1920"
     inkscape:window-y="18"
     inkscape:window-maximized="1" />
  <metadata
     id="metadata5">
    <rdf:RDF>
      <cc:Work
         rdf:about="">
        <dc:format>image/svg+xml</dc:format>
        <dc:type
           rdf:resource="http://purl.org/dc/dcmitype/StillImage" />
        <dc:title></dc:title>
      </cc:Work>
    </rdf:RDF>
  </metadata>
  <g
     inkscape:label="Layer 1"
     inkscape:groupmode="layer"
     id="layer1">
    <rect
       style="fill:#c0c0c0;fill-opacity:0.528156;stroke:#000000;stroke-width:0.4;stroke-linejoin:round;stroke-opacity:1"
       id="rect833"
       width="49.599998"
       height="24.6"
       x="25.200001"
       y="0.2"
       ry="7.3056979"
       rx="7.3056979" />
    <rect
       style="fill:#c0c0c0;fill-opacity:0.528156;stroke:#000000;stroke-width:0.4;stroke-linejoin:round;stroke-opacity:1"
       id="rect833-3"
       width="19.6"
       height="24.6"
       x="0.2"
       y="50.200001"
       ry="7.3056979"
       rx="7.3056979" />
    <rect
       style="fill:#c0c0c0;fill-opacity:0.528156;stroke:#000000;stroke-width:0.4;stroke-linejoin:round;stroke-opacity:1"
       id="rect833-3-5"
       width="19.6"
       height="24.6"
       x="80.199997"
       y="50.200001"
       ry="7.3056979"
       rx="7.3056979" />
    <rect
       style="fill:#c0c0c0;fill-opacity:0.528156;stroke:#000000;stroke-width:0.4;stroke-linejoin:round;stroke-opacity:1"
       id="rect833-3-6"
       width="19.6"
       height="24.6"
       x="53.533298"
       y="50.200001"
       ry="7.3056979"
       rx="7.3056979" />
    <rect
       style="fill:#c0c0c0;fill-opacity:0.528156;stroke:#000000;stroke-width:0.4;stroke-linejoin:round;stroke-opacity:1"
       id="rect833-3-2"
       width="19.6"
       height="24.6"
       x="26.8666"
       y="50.200001"
       ry="7.3056979"
       rx="7.3056979" />
    <text
       xml:space="preserve"
       id="text940"
       style="font-style:normal;font-weight:normal;font-size:8.46667px;line-height:1.25;font-family:sans-serif;letter-spacing:0px;word-spacing:0px;white-space:pre;shape-inside:url(#rect942);fill:#000000;fill-opacity:1;stroke:none;stroke-width:1.03222;"
       transform="matrix(0.93854899,0,0,1,-0.53858043,2.0381796)"><tspan
         x="29.576172"
         y="12.664847"><tspan
           style="shape-inside:url(#rect942)">File System</tspan></tspan></text>
    <rect
       style="fill:#353434;fill-opacity:0.559396;stroke:#000000;stroke-width:0.4;stroke-linejoin:round;stroke-miterlimit:4;stroke-dasharray:0.4, 0.4;stroke-dashoffset:0;stroke-opacity:1"
       id="rect833-3-5-9"
       width="15.599961"
       height="20.59992"
       x="82.199997"
       y="52.200077"
       ry="7.3056984"
       rx="7.3056974" />
    <rect
       style="fill:#353434;fill-opacity:0.559396;stroke:#000000;stroke-width:0.4;stroke-linejoin:round;stroke-miterlimit:4;stroke-dasharray:0.4, 0.4;stroke-dashoffset:0;stroke-opacity:1"
       id="rect833-3-5-9-1"
       width="15.599961"
       height="20.59992"
       x="2.2"
       y="52.200077"
       ry="7.3056984"
       rx="7.3056974" />
    <rect
       style="fill:#353434;fill-opacity:0.559396;stroke:#000000;stroke-width:0.4;stroke-linejoin:round;stroke-miterlimit:4;stroke-dasharray:0.4, 0.4;stroke-dashoffset:0;stroke-opacity:1"
       id="rect833-3-5-9-2"
       width="15.599961"
       height="20.59992"
       x="28.866699"
       y="52.200077"
       ry="7.3056984"
       rx="7.3056974" />
    <rect
       style="fill:#353434;fill-opacity:0.559396;stroke:#000000;stroke-width:0.4;stroke-linejoin:round;stroke-miterlimit:4;stroke-dasharray:0.4, 0.4;stroke-dashoffset:0;stroke-opacity:1"
       id="rect833-3-5-9-7"
       width="15.599961"
       height="20.59992"
       x="55.533333"
       y="52.200077"
       ry="7.3056984"
       rx="7.3056974" />
    <path
       style="fill:none;stroke:#000000;stroke-width:0.264999;stroke-linecap:butt;stroke-linejoin:miter;stroke-miterlimit:4;stroke-dasharray:none;stroke-opacity:1;marker-start:url(#Arrow1Lstart);marker-end:url(#Arrow1Lend)"
       d="M 49.577512,25.373227 10.362844,60.616162"
       id="path1026" />
    <path
       style="fill:none;stroke:#000000;stroke-width:0.264999;stroke-linecap:butt;stroke-linejoin:miter;stroke-miterlimit:4;stroke-dasharray:none;stroke-opacity:1;marker-start:url(#Arrow1Lstart-0);marker-end:url(#Arrow1Lend-3)"
       d="m 49.577978,25.373474 12.485793,36.18193"
       id="path1026-0" />
    <path
       style="fill:none;stroke:#000000;stroke-width:0.264999;stroke-linecap:butt;stroke-linejoin:miter;stroke-miterlimit:4;stroke-dasharray:none;stroke-opacity:1;marker-start:url(#Arrow1Lstart-6);marker-end:url(#Arrow1Lend-6)"
       d="M 49.514933,25.242844 36.658,60.5985"
       id="path1026-8" />
    <path
       style="fill:none;stroke:#000000;stroke-width:0.264999;stroke-linecap:butt;stroke-linejoin:miter;stroke-miterlimit:4;stroke-dasharray:none;stroke-opacity:1;marker-start:url(#Arrow1Lstart-7);marker-end:url(#Arrow1Lend-0)"
       d="M 90.84688,60.459866 49.577978,25.373474"
       id="path1026-3" />
    <path
       style="fill:none;stroke:#000000;stroke-width:0.365;stroke-linecap:butt;stroke-linejoin:miter;stroke-miterlimit:4.3;stroke-dasharray:none;stroke-opacity:1;marker-start:url(#marker1324);marker-end:url(#marker2560)"
       d="m 9.6485,73.347722 c 0,0 15.188995,10.956097 26.81753,0.05736"
       id="path2450" />
    <path
       style="fill:none;stroke:#000000;stroke-width:0.365;stroke-linecap:butt;stroke-linejoin:miter;stroke-miterlimit:4.3;stroke-dasharray:none;stroke-opacity:1;marker-start:url(#marker1324-7);marker-end:url(#marker2560-9)"
       d="m 63.28356,73.462442 c 0,0 15.188995,10.956097 26.81753,0.05736"
       id="path2450-2" />
    <path
       style="fill:none;stroke:#000000;stroke-width:0.365;stroke-linecap:butt;stroke-linejoin:miter;stroke-miterlimit:4.3;stroke-dasharray:none;stroke-opacity:1;marker-start:url(#marker1324-8);marker-end:url(#marker2560-7)"
       d="m 36.46603,73.405082 c 0,0 15.188995,10.956097 26.81753,0.05736"
       id="path2450-6" />
    <text
       xml:space="preserve"
       id="text3215"
       style="font-style:normal;font-weight:normal;font-size:8.46667px;line-height:1.25;font-family:sans-serif;letter-spacing:0px;word-spacing:0px;white-space:pre;shape-inside:url(#rect3217);fill:#000000;fill-opacity:1;stroke:none;stroke-width:1.32518;"
       transform="matrix(0.75461708,0,0,0.75461708,-42.201005,9.7051958)"><tspan
         x="64.841797"
         y="38.938284"><tspan
           style="font-size:8.46667px;stroke-width:1.32518">I/O ops.</tspan></tspan></text>
    <text
       xml:space="preserve"
       id="text3221"
       style="font-style:normal;font-weight:normal;font-size:8.46667px;line-height:1.25;font-family:sans-serif;letter-spacing:0px;word-spacing:0px;white-space:pre;shape-inside:url(#rect3223);fill:#000000;fill-opacity:1;stroke:none;stroke-width:1.51397;"
       transform="matrix(0.61733677,0,0,0.70671337,3.7847198,19.417017)"><tspan
         x="6.625"
         y="90.713675"><tspan
           style="shape-inside:url(#rect3223)">Comms.</tspan></tspan></text>
    <path
       style="fill:none;stroke:#000000;stroke-width:0.264583px;stroke-linecap:butt;stroke-linejoin:miter;stroke-opacity:1;marker-start:url(#marker3367)"
       d="m 93.356127,74.811601 c 0,0 -10.608596,15.182814 -22.303386,13.772865"
       id="path3227"
       sodipodi:nodetypes="cc" />
    <text
       xml:space="preserve"
       id="text3483"
       style="font-style:normal;font-weight:normal;font-size:8.46667px;line-height:1.25;font-family:sans-serif;letter-spacing:0px;word-spacing:0px;white-space:pre;shape-inside:url(#rect3485);fill:#000000;fill-opacity:1;stroke:none;stroke-width:1.38522;"
       transform="matrix(0.72190588,0,0,0.72190588,5.462936,23.271212)"><tspan
         x="36.183594"
         y="91.57305"><tspan
           style="shape-inside:url(#rect3485)">Physical Res.</tspan></tspan></text>
    <text
       xml:space="preserve"
       id="text3495"
       style="font-style:normal;font-weight:normal;font-size:8.46667px;line-height:1.25;font-family:sans-serif;letter-spacing:0px;word-spacing:0px;white-space:pre;shape-inside:url(#rect3497);fill:#000000;fill-opacity:1;stroke:none;stroke-width:1.32302;"
       transform="matrix(0.76723997,0,0,0.74462395,-11.735554,70.572711)"><tspan
         x="60.320312"
         y="34.821097"><tspan
           style="shape-inside:url(#rect3497)">Virtual Res.</tspan></tspan></text>
    <path
       style="fill:none;stroke:#000000;stroke-width:0.264583px;stroke-linecap:butt;stroke-linejoin:miter;stroke-opacity:1;marker-start:url(#marker3659)"
       d="m 96.40033,70.072458 c 0,0 6.08437,29.144515 -25.006641,26.260105"
       id="path3507" />
  </g>
</svg>
