<?xml version="1.0" encoding="UTF-8" standalone="no"?>
<svg
   xmlns:dc="http://purl.org/dc/elements/1.1/"
   xmlns:cc="http://creativecommons.org/ns#"
   xmlns:rdf="http://www.w3.org/1999/02/22-rdf-syntax-ns#"
   xmlns:svg="http://www.w3.org/2000/svg"
   xmlns="http://www.w3.org/2000/svg"
   xmlns:sodipodi="http://sodipodi.sourceforge.net/DTD/sodipodi-0.dtd"
   xmlns:inkscape="http://www.inkscape.org/namespaces/inkscape"
   width="272mm"
   height="199mm"
   viewBox="0 0 272 199"
   version="1.1"
   id="svg8"
   inkscape:version="1.0.2 (e86c870879, 2021-01-15)"
   sodipodi:docname="store.svg">
  <defs
     id="defs2">
    <inkscape:path-effect
       effect="powerstroke"
       id="path-effect4583"
       is_visible="true"
       lpeversion="1"
       offset_points="0.018264068,1.337111"
       sort_points="true"
       interpolator_type="CubicBezierJohan"
       interpolator_beta="0.2"
       start_linecap_type="zerowidth"
       linejoin_type="extrp_arc"
       miter_limit="4"
       scale_width="1"
       end_linecap_type="zerowidth" />
    <inkscape:path-effect
       effect="powerstroke"
       id="path-effect4455"
       is_visible="true"
       lpeversion="1"
       offset_points="0.018264068,1.337111"
       sort_points="true"
       interpolator_type="CubicBezierJohan"
       interpolator_beta="0.2"
       start_linecap_type="zerowidth"
       linejoin_type="extrp_arc"
       miter_limit="4"
       scale_width="1"
       end_linecap_type="zerowidth" />
    <inkscape:path-effect
       effect="powerstroke"
       id="path-effect4323"
       is_visible="true"
       lpeversion="1"
       offset_points="0.018264068,1.337111"
       sort_points="true"
       interpolator_type="CubicBezierJohan"
       interpolator_beta="0.2"
       start_linecap_type="zerowidth"
       linejoin_type="extrp_arc"
       miter_limit="4"
       scale_width="1"
       end_linecap_type="zerowidth" />
    <inkscape:path-effect
       effect="powerstroke"
       id="path-effect4205"
       is_visible="true"
       lpeversion="1"
       offset_points="0.038236314,0.90963305"
       sort_points="true"
       interpolator_type="CubicBezierJohan"
       interpolator_beta="0.2"
       start_linecap_type="zerowidth"
       linejoin_type="extrp_arc"
       miter_limit="4"
       scale_width="1"
       end_linecap_type="zerowidth" />
    <marker
       style="overflow:visible"
       id="marker4072"
       refX="0"
       refY="0"
       orient="auto"
       inkscape:stockid="Arrow1Lstart"
       inkscape:isstock="true">
      <path
         transform="matrix(0.8,0,0,0.8,10,0)"
         style="fill:#000000;fill-opacity:1;fill-rule:evenodd;stroke:none;stroke-width:1pt;stroke-opacity:1"
         d="M 0,0 5,-5 -12.5,0 5,5 Z"
         id="path4070" />
    </marker>
    <marker
       style="overflow:visible"
       id="marker4002"
       refX="0"
       refY="0"
       orient="auto"
       inkscape:stockid="Arrow1Lend"
       inkscape:isstock="true">
      <path
         transform="matrix(-0.8,0,0,-0.8,-10,0)"
         style="fill:#000000;fill-opacity:1;fill-rule:evenodd;stroke:none;stroke-width:1pt;stroke-opacity:1"
         d="M 0,0 5,-5 -12.5,0 5,5 Z"
         id="path4000" />
    </marker>
    <marker
       style="overflow:visible"
       id="marker3794"
       refX="0"
       refY="0"
       orient="auto"
       inkscape:stockid="Arrow1Lstart"
       inkscape:isstock="true">
      <path
         transform="matrix(0.8,0,0,0.8,10,0)"
         style="fill:#000000;fill-opacity:1;fill-rule:evenodd;stroke:none;stroke-width:1pt;stroke-opacity:1"
         d="M 0,0 5,-5 -12.5,0 5,5 Z"
         id="path3792" />
    </marker>
    <marker
       style="overflow:visible"
       id="Arrow1Mstart"
       refX="0"
       refY="0"
       orient="auto"
       inkscape:stockid="Arrow1Mstart"
       inkscape:isstock="true">
      <path
         transform="matrix(0.4,0,0,0.4,4,0)"
         style="fill:#000000;fill-opacity:1;fill-rule:evenodd;stroke:none;stroke-width:1pt;stroke-opacity:1"
         d="M 0,0 5,-5 -12.5,0 5,5 Z"
         id="path3098" />
    </marker>
    <marker
       style="overflow:visible"
       id="Arrow1Lstart"
       refX="0"
       refY="0"
       orient="auto"
       inkscape:stockid="Arrow1Lstart"
       inkscape:isstock="true">
      <path
         transform="matrix(0.8,0,0,0.8,10,0)"
         style="fill:#000000;fill-opacity:1;fill-rule:evenodd;stroke:none;stroke-width:1pt;stroke-opacity:1"
         d="M 0,0 5,-5 -12.5,0 5,5 Z"
         id="path3092" />
    </marker>
    <marker
       style="overflow:visible"
       id="Arrow1Lend"
       refX="0"
       refY="0"
       orient="auto"
       inkscape:stockid="Arrow1Lend"
       inkscape:isstock="true">
      <path
         transform="matrix(-0.8,0,0,-0.8,-10,0)"
         style="fill:#000000;fill-opacity:1;fill-rule:evenodd;stroke:none;stroke-width:1pt;stroke-opacity:1"
         d="M 0,0 5,-5 -12.5,0 5,5 Z"
         id="path3095" />
    </marker>
    <inkscape:path-effect
       effect="powerstroke"
       id="path-effect960"
       is_visible="true"
       lpeversion="1"
       offset_points="0.018264068,1.337111"
       sort_points="true"
       interpolator_type="CubicBezierJohan"
       interpolator_beta="0.2"
       start_linecap_type="zerowidth"
       linejoin_type="extrp_arc"
       miter_limit="4"
       scale_width="1"
       end_linecap_type="zerowidth" />
    <inkscape:path-effect
       effect="powerstroke"
       id="path-effect956"
       is_visible="true"
       lpeversion="1"
       offset_points="1,0.13454804"
       sort_points="true"
       interpolator_type="CubicBezierJohan"
       interpolator_beta="0.2"
       start_linecap_type="zerowidth"
       linejoin_type="extrp_arc"
       miter_limit="4"
       scale_width="1"
       end_linecap_type="zerowidth" />
    <rect
       x="56.995785"
       y="67.305321"
       width="77.225449"
       height="16.431929"
       id="rect948" />
    <rect
       x="16.455713"
       y="51.5891"
       width="67.531219"
       height="22.06864"
       id="rect843" />
    <marker
       style="overflow:visible"
       id="marker4072-1"
       refX="0"
       refY="0"
       orient="auto"
       inkscape:stockid="Arrow1Lstart"
       inkscape:isstock="true">
      <path
         transform="matrix(0.8,0,0,0.8,10,0)"
         style="fill:#000000;fill-opacity:1;fill-rule:evenodd;stroke:none;stroke-width:1pt;stroke-opacity:1"
         d="M 0,0 5,-5 -12.5,0 5,5 Z"
         id="path4070-7" />
    </marker>
    <marker
       style="overflow:visible"
       id="marker4072-4"
       refX="0"
       refY="0"
       orient="auto"
       inkscape:stockid="Arrow1Lstart"
       inkscape:isstock="true">
      <path
         transform="matrix(0.8,0,0,0.8,10,0)"
         style="fill:#000000;fill-opacity:1;fill-rule:evenodd;stroke:none;stroke-width:1pt;stroke-opacity:1"
         d="M 0,0 5,-5 -12.5,0 5,5 Z"
         id="path4070-0" />
    </marker>
    <marker
       style="overflow:visible"
       id="marker4072-5"
       refX="0"
       refY="0"
       orient="auto"
       inkscape:stockid="Arrow1Lstart"
       inkscape:isstock="true">
      <path
         transform="matrix(0.8,0,0,0.8,10,0)"
         style="fill:#000000;fill-opacity:1;fill-rule:evenodd;stroke:none;stroke-width:1pt;stroke-opacity:1"
         d="M 0,0 5,-5 -12.5,0 5,5 Z"
         id="path4070-1" />
    </marker>
    <marker
       style="overflow:visible"
       id="marker4072-5-6"
       refX="0"
       refY="0"
       orient="auto"
       inkscape:stockid="Arrow1Lstart"
       inkscape:isstock="true">
      <path
         transform="matrix(0.8,0,0,0.8,10,0)"
         style="fill:#000000;fill-opacity:1;fill-rule:evenodd;stroke:none;stroke-width:1pt;stroke-opacity:1"
         d="M 0,0 5,-5 -12.5,0 5,5 Z"
         id="path4070-1-2" />
    </marker>
  </defs>
  <sodipodi:namedview
     id="base"
     pagecolor="#ffffff"
     bordercolor="#666666"
     borderopacity="1.0"
     inkscape:pageopacity="0.0"
     inkscape:pageshadow="2"
     inkscape:zoom="1.979899"
     inkscape:cx="663.20683"
     inkscape:cy="363.08455"
     inkscape:document-units="mm"
     inkscape:current-layer="layer1"
     inkscape:document-rotation="0"
     showgrid="false"
     width="298mm"
     inkscape:window-width="3836"
     inkscape:window-height="2121"
     inkscape:window-x="1920"
     inkscape:window-y="18"
     inkscape:window-maximized="1" />
  <metadata
     id="metadata5">
    <rdf:RDF>
      <cc:Work
         rdf:about="">
        <dc:format>image/svg+xml</dc:format>
        <dc:type
           rdf:resource="http://purl.org/dc/dcmitype/StillImage" />
        <dc:title></dc:title>
      </cc:Work>
    </rdf:RDF>
  </metadata>
  <g
     inkscape:label="Layer 1"
     inkscape:groupmode="layer"
     id="layer1">
    <path
       style="fill:#000000;fill-opacity:1;fill-rule:nonzero;stroke:none;stroke-width:1;stroke-linecap:butt;stroke-linejoin:miter;stroke-miterlimit:4;stroke-dasharray:none;stroke-opacity:1;marker-start:url(#marker4072-1)"
       d="m 252.86834,62.453052 c 1.46091,-0.691195 5.75138,-1.883454 6.88101,-2.528334 1.11047,-0.633946 2.21077,-1.304015 3.25605,-2.001811 2.2356,-1.492427 4.21806,-3.110047 5.54414,-4.798209 0.57982,-0.738125 1.04125,-1.498455 1.34297,-2.277074 0.28429,-0.733632 0.42595,-1.481849 0.39114,-2.234254 -0.0332,-0.716662 -0.22526,-1.410027 -0.57229,-2.072641 -0.33143,-0.632835 -0.79838,-1.226953 -1.38633,-1.785704 -0.56802,-0.539806 -1.25265,-1.050135 -2.04603,-1.534217 -0.77197,-0.471014 -1.65069,-0.919464 -2.63097,-1.34701 -1.89977,-0.828579 -4.1845,-1.580064 -6.80966,-2.261437 -5.07588,-1.31747 -11.33511,-2.349238 -18.23571,-3.151521 -6.83306,-0.79443 -14.1285,-1.344387 -21.15572,-1.723336 -7.30762,-0.394071 -14.28423,-0.60105 -20.08779,-0.707747 -7.43532,-0.136698 -13.32809,-0.116341 -16.4783,-0.08747 -3.37577,0.03094 -4.42012,0.07013 -4.42012,0.07013 0,0 1.04496,-7.75e-4 4.42002,0.03634 3.06055,0.03366 9.12927,0.11738 16.46862,0.360457 5.79164,0.191816 12.77233,0.495235 20.0575,0.987774 7.01319,0.47415 14.28315,1.121744 21.07868,2.011468 6.87032,0.899517 13.05342,2.020125 18.02882,3.407806 2.57216,0.717396 4.77024,1.491959 6.56545,2.322809 0.92482,0.428019 1.7332,0.866598 2.42657,1.314201 0.7135,0.460596 1.29617,0.924933 1.75693,1.389412 0.47644,0.48029 0.81445,0.952542 1.03613,1.41261 0.22952,0.476351 0.33739,0.945483 0.34376,1.41264 0.007,0.492784 -0.0993,1.007717 -0.32516,1.550237 -0.24185,0.580912 -0.61909,1.188096 -1.13159,1.818919 -1.18553,1.459218 -3.0064,2.93761 -5.18345,4.377341 -1.00742,0.666224 -2.07304,1.312322 -3.15561,1.930342 -0.51165,0.292089 -1.60802,1.167519 -2.7565,2.010819 -1.18902,0.873071 -2.46505,1.739058 -3.22256,2.097455 z"
       id="path958-0"
       inkscape:path-effect="#path-effect4205"
       inkscape:original-d="M 252.86834,62.453052 C 316.54721,32.324824 176.46073,34.012421 176.46073,34.012421"
       sodipodi:nodetypes="cc" />
    <text
       xml:space="preserve"
       style="font-style:normal;font-variant:normal;font-weight:normal;font-stretch:normal;font-size:10.5833px;line-height:1.25;font-family:sans-serif;-inkscape-font-specification:sans-serif;letter-spacing:0px;word-spacing:0px;fill:#000000;fill-opacity:1;stroke:none;stroke-width:0.264583"
       x="0.42817524"
       y="9.6842117"
       id="text835"><tspan
         sodipodi:role="line"
         id="tspan833"
         x="0.42817524"
         y="9.6842117"
         style="font-style:normal;font-variant:normal;font-weight:normal;font-stretch:normal;font-family:sans-serif;-inkscape-font-specification:sans-serif;stroke-width:0.264583">/home/alice/.nix-profile</tspan></text>
    <text
       xml:space="preserve"
       style="font-style:normal;font-weight:normal;font-size:10.5833px;line-height:1.25;font-family:sans-serif;letter-spacing:0px;word-spacing:0px;fill:#000000;fill-opacity:1;stroke:none;stroke-width:0.264583"
       x="1.2753924"
       y="24.438295"
       id="text849"><tspan
         sodipodi:role="line"
         x="1.2753924"
         y="24.438295"
         style="stroke-width:0.264583"
         id="tspan917">/nix/var/nix/profiles/per-user/alice</tspan><tspan
         sodipodi:role="line"
         x="1.2753924"
         y="37.667419"
         style="stroke-width:0.264583"
         id="tspan927">├── profile -&gt; profile-42-link</tspan><tspan
         sodipodi:role="line"
         x="1.2753924"
         y="50.896545"
         style="stroke-width:0.264583"
         id="tspan952">├── profile-41-link -&gt; /nix/store/k72d...-user-env</tspan><tspan
         sodipodi:role="line"
         x="1.2753924"
         y="64.125671"
         style="stroke-width:0.264583"
         id="tspan929">└── profile-42-link -&gt; /nix/store/zfhd...-user-env</tspan><tspan
         sodipodi:role="line"
         x="1.2753924"
         y="77.354797"
         style="stroke-width:0.264583"
         id="tspan913">/nix/store</tspan><tspan
         sodipodi:role="line"
         x="1.2753924"
         y="90.583916"
         style="stroke-width:0.264583"
         id="tspan899">├── zfhd...-user-env</tspan><tspan
         sodipodi:role="line"
         x="1.2753924"
         y="103.81304"
         style="stroke-width:0.264583"
         id="tspan905">│     └── bin</tspan><tspan
         sodipodi:role="line"
         x="1.2753924"
         y="117.04217"
         style="stroke-width:0.264583"
         id="tspan907">│           └── batsim</tspan><tspan
         sodipodi:role="line"
         x="1.2753924"
         y="130.27129"
         style="stroke-width:0.264583"
         id="tspan877">├── 0kkz...-batsim-4.1.0</tspan><tspan
         sodipodi:role="line"
         x="1.2753924"
         y="143.50041"
         style="stroke-width:0.264583"
         id="tspan893">│     └── bin</tspan><tspan
         sodipodi:role="line"
         x="1.2753924"
         y="156.72954"
         style="stroke-width:0.264583"
         id="tspan867">│           └── batsim</tspan><tspan
         sodipodi:role="line"
         x="1.2753924"
         y="169.95866"
         style="stroke-width:0.264583"
         id="tspan861">└── 6k6f...-simgrid-3.31</tspan><tspan
         sodipodi:role="line"
         x="1.2753924"
         y="183.18779"
         style="stroke-width:0.264583"
         id="tspan855">       └── lib</tspan><tspan
         sodipodi:role="line"
         x="1.2753924"
         y="196.41692"
         style="stroke-width:0.264583"
         id="tspan857">             └── libsimgrid.so.3.31</tspan><tspan
         sodipodi:role="line"
         x="1.2753924"
         y="209.64604"
         style="stroke-width:0.264583"
         id="tspan859" /></text>
    <text
       xml:space="preserve"
       id="text946"
       style="font-style:normal;font-weight:normal;font-size:10.5833px;line-height:1.25;font-family:sans-serif;letter-spacing:0px;word-spacing:0px;white-space:pre;shape-inside:url(#rect948);fill:#000000;fill-opacity:1;stroke:none;" />
    <path
       style="opacity:0;fill:#000000;fill-opacity:1;fill-rule:nonzero;stroke:none;stroke-width:38.169;stroke-linecap:butt;stroke-linejoin:miter;stroke-miterlimit:4;stroke-dasharray:none;stroke-opacity:1"
       d="m 131.76198,6.1872375 c 16.1601,1.9222662 32.12981,3.019098 53.28055,3.8337975 6.90092,0.265815 13.90303,0.492022 19.11961,0.76226 2.59743,0.134557 4.92224,0.286825 6.90788,0.475368 1.96581,0.186659 3.59417,0.408336 4.84207,0.683388 0.62278,0.137267 1.14813,0.287248 1.5728,0.451772 0.21257,0.08236 0.39915,0.168063 0.55968,0.257208 0.16093,0.08937 0.29476,0.181683 0.40209,0.27678 0.1076,0.09535 0.18762,0.192654 0.24197,0.291631 0.0543,0.09896 0.0834,0.200314 0.0886,0.304939 0.005,0.105231 -0.0138,0.216508 -0.0591,0.334847 -0.0456,0.119195 -0.11794,0.24538 -0.21883,0.378823 -0.20406,0.269882 -0.52091,0.564047 -0.95503,0.883687 -0.44002,0.32399 -0.99668,0.671355 -1.66961,1.043114 -1.38732,0.766411 -3.25823,1.630589 -5.58071,2.594283 -5.10376,2.11776 -12.38675,4.712137 -20.87031,7.58084 -10.80908,3.655075 -24.36149,8.014519 -35.26912,11.49999 0,0 0.041,0.128164 0.041,0.128164 0,0 0.0409,0.128164 0.0409,0.128164 10.92323,-3.490455 24.4443,-7.847264 35.26751,-11.519279 8.48205,-2.877724 15.76632,-5.484867 20.87303,-7.618503 2.32342,-0.970747 4.19956,-1.844205 5.5931,-2.621831 0.67605,-0.377252 1.23856,-0.731941 1.68525,-1.065112 0.43965,-0.327918 0.76941,-0.636667 0.98514,-0.927919 0.10708,-0.144555 0.18693,-0.285948 0.23791,-0.424317 0.0508,-0.137952 0.073,-0.272965 0.0646,-0.404433 -0.008,-0.131095 -0.0469,-0.255856 -0.11394,-0.373908 -0.0666,-0.117285 -0.1607,-0.227083 -0.27984,-0.330213 -0.1188,-0.10283 -0.26332,-0.199763 -0.43218,-0.291491 -0.16859,-0.09158 -0.36224,-0.178401 -0.58015,-0.260922 -0.43497,-0.164726 -0.96868,-0.313103 -1.59608,-0.447787 -1.25705,-0.269852 -2.89224,-0.485114 -4.86014,-0.664988 -1.9885,-0.181759 -4.31508,-0.327166 -6.91372,-0.454989 C 198.96403,10.434684 191.9298,10.221443 185.04454,9.9679448 163.95085,9.1913287 147.86517,8.1027337 131.76198,6.1872375 Z"
       id="path954"
       inkscape:path-effect="#path-effect956"
       inkscape:original-d="m 131.76198,6.1872375 c 79.7189,9.4826715 137.24171,-4.9054313 22.43344,31.7808915" />
    <path
       style="opacity:1;fill:#000000;fill-opacity:1;fill-rule:nonzero;stroke:none;stroke-width:1;stroke-linecap:butt;stroke-linejoin:miter;stroke-miterlimit:4;stroke-dasharray:none;stroke-opacity:1;marker-start:url(#marker4072)"
       d="m 153.42695,34.269053 c 1.71518,-0.241091 6.85502,0.368132 8.44022,0.133062 12.42564,-1.842599 25.47515,-4.045406 35.84312,-6.424874 4.80004,-1.101618 8.93219,-2.219304 12.21295,-3.346497 1.52349,-0.523439 2.86322,-1.048824 4.00485,-1.576803 1.09788,-0.507745 2.02683,-1.024382 2.76589,-1.554009 0.36199,-0.259412 0.68532,-0.526833 0.96338,-0.803686 0.2739,-0.272724 0.51104,-0.561726 0.69724,-0.868733 0.18463,-0.304397 0.32208,-0.631468 0.391,-0.978596 0.0687,-0.346258 0.0656,-0.694658 -0.0108,-1.035881 -0.0751,-0.335325 -0.21614,-0.643148 -0.40139,-0.922616 -0.18252,-0.275359 -0.40953,-0.525803 -0.66536,-0.754892 -0.5012,-0.448814 -1.15201,-0.850111 -1.90678,-1.216711 -0.7501,-0.364333 -1.63339,-0.708933 -2.63077,-1.03678 -0.98937,-0.325213 -2.10008,-0.636887 -3.31728,-0.936017 -2.41495,-0.593482 -5.25797,-1.139716 -8.40962,-1.64239 C 195.07046,10.293528 187.54299,9.467727 179.93148,8.8011836 171.99282,8.1059907 163.98809,7.5861898 157.17465,7.2107652 148.42101,6.7284344 141.226,6.4610362 137.30363,6.3344395 c -4.12659,-0.1331878 -5.54165,-0.147202 -5.54165,-0.147202 l 0,0 c 1.80686,0.1007976 3.72814,0.1979413 5.535,0.2987389 3.76186,0.2088169 11.26013,0.6382623 19.84299,1.2656536 6.79173,0.4964624 14.79965,1.154926 22.70058,1.990348 7.58984,0.802529 15.06898,1.766952 21.33248,2.910293 3.11748,0.569064 5.90129,1.176553 8.24141,1.823026 1.17854,0.325578 2.23634,0.658796 3.16304,0.999057 0.93709,0.344077 1.72816,0.691008 2.36899,1.038018 0.65371,0.35398 1.12101,0.692056 1.42461,1.001404 0.15161,0.154481 0.25251,0.291874 0.31599,0.409037 0.0634,0.117015 0.0867,0.207171 0.0924,0.278494 0.005,0.06744 -0.004,0.132252 -0.028,0.20286 -0.0248,0.07411 -0.0717,0.173649 -0.16068,0.298228 -0.0913,0.127825 -0.22368,0.277313 -0.41238,0.446622 -0.19094,0.171319 -0.43105,0.355303 -0.72769,0.550652 -0.61031,0.401914 -1.42277,0.827675 -2.45448,1.273414 -1.06698,0.460977 -2.34218,0.932065 -3.82303,1.411962 -3.19306,1.03477 -7.2497,2.080696 -12.01651,3.129424 -10.30811,2.26785 -23.26158,4.400547 -35.68184,6.24235 -1.58095,0.23444 -6.33277,2.271143 -8.04795,2.512234 z"
       id="path958"
       inkscape:path-effect="#path-effect960"
       inkscape:original-d="M 153.42695,34.269053 C 309.94386,12.268534 131.76198,6.1872375 131.76198,6.1872375"
       sodipodi:nodetypes="cc" />
    <path
       style="fill:#000000;fill-opacity:1;fill-rule:nonzero;stroke:none;stroke-width:1;stroke-linecap:butt;stroke-linejoin:miter;stroke-miterlimit:4;stroke-dasharray:none;stroke-opacity:1;marker-start:url(#marker4072-4)"
       d="m 110.00123,88.582856 c 1.68537,-0.05261 6.68754,1.118612 8.30766,1.061176 25.24358,-0.894936 54.17237,-2.533128 78.57604,-5.410315 9.79094,-1.15435 18.15385,-2.424531 25.17,-3.787704 6.63485,-1.289089 11.81856,-2.613397 15.83479,-3.924853 3.99144,-1.303363 6.73671,-2.563658 8.6191,-3.716886 0.96478,-0.591061 1.7003,-1.152426 2.25981,-1.674713 0.58006,-0.541463 0.97228,-1.042187 1.23353,-1.491254 0.27579,-0.474082 0.40677,-0.892547 0.45707,-1.243405 0.0543,-0.378887 0.0159,-0.687218 -0.0448,-0.916757 -0.0682,-0.258089 -0.17094,-0.441318 -0.24162,-0.547383 -0.0921,-0.138238 -0.14477,-0.178511 -0.14477,-0.178511 0,0 0.0361,0.05526 0.0894,0.206343 0.0413,0.116953 0.0947,0.306447 0.10679,0.550033 0.0108,0.216819 -0.0103,0.489723 -0.11345,0.807494 -0.0952,0.293162 -0.26396,0.636495 -0.55987,1.021969 -0.28073,0.365686 -0.68279,0.778387 -1.263,1.229516 -0.56025,0.435602 -1.29094,0.910419 -2.24755,1.415735 -1.86739,0.986426 -4.58606,2.083982 -8.55315,3.230155 -3.99229,1.153456 -9.14567,2.326339 -15.75592,3.472244 -6.99187,1.212062 -15.32047,2.343203 -25.08926,3.373684 -24.52457,2.587026 -53.03505,4.011837 -78.42791,4.912065 -1.6178,0.05735 -6.52754,1.55876 -8.21291,1.611367 z"
       id="path958-8"
       inkscape:path-effect="#path-effect4323"
       inkscape:original-d="M 110.00123,88.582856 C 263.79814,83.782255 250.02804,66.752251 250.02804,66.752251"
       sodipodi:nodetypes="cc" />
    <path
       style="fill:#000000;fill-opacity:1;fill-rule:nonzero;stroke:none;stroke-width:1;stroke-linecap:butt;stroke-linejoin:miter;stroke-miterlimit:4;stroke-dasharray:none;stroke-opacity:1;marker-start:url(#marker4072-5)"
       d="m 105.63253,153.24833 c 1.90404,-0.43014 7.71193,-0.39519 9.48098,-0.81055 13.86939,-3.2564 28.60821,-7.0514 40.77533,-10.96955 5.63319,-1.81405 10.59546,-3.61555 14.70047,-5.38519 3.74326,-1.61369 6.74567,-3.18855 8.9217,-4.72285 1.03591,-0.73042 1.8964,-1.45982 2.56472,-2.19075 0.65066,-0.7116 1.13739,-1.44458 1.41436,-2.19989 0.13698,-0.37356 0.22246,-0.75227 0.25009,-1.13369 0.0274,-0.37863 -0.003,-0.75127 -0.0895,-1.11449 -0.0858,-0.35963 -0.2248,-0.70144 -0.40852,-1.02477 -0.18198,-0.32027 -0.40706,-0.62116 -0.66677,-0.90424 -0.51217,-0.55823 -1.17197,-1.06125 -1.94137,-1.51995 -0.76413,-0.45557 -1.65518,-0.87851 -2.6526,-1.27323 -1.9776,-0.78261 -4.41184,-1.46913 -7.17238,-2.0741 -2.75876,-0.60458 -5.84754,-1.12849 -9.13008,-1.5828 -3.31442,-0.45871 -6.82025,-0.8456 -10.36983,-1.17202 -7.37768,-0.67844 -14.96074,-1.09723 -21.45718,-1.35694 -8.33038,-0.33302 -15.32435,-0.42332 -19.10483,-0.4471 -4.06659,-0.0256 -5.38443,0.007 -5.38443,0.007 0,0 1.31791,0.0217 5.38166,0.14462 3.67851,0.11125 10.86527,0.35342 19.08086,0.83676 6.47954,0.3812 14.05271,0.93784 21.38827,1.75595 3.53198,0.39391 7.01261,0.84882 10.29488,1.37468 3.25245,0.52108 6.29315,1.10913 8.991,1.77251 2.70662,0.66553 5.03358,1.39851 6.87644,2.20117 0.9275,0.40397 1.71832,0.81957 2.36699,1.24419 0.65707,0.43012 1.14772,0.85614 1.48689,1.26921 0.16993,0.20695 0.29814,0.40616 0.39088,0.59659 0.0931,0.19114 0.15064,0.37376 0.17966,0.54921 0.0291,0.17617 0.0308,0.35315 0.005,0.53439 -0.0258,0.18353 -0.0809,0.38017 -0.17238,0.59184 -0.18779,0.43429 -0.5291,0.93089 -1.0779,1.488 -0.56161,0.57012 -1.31633,1.17912 -2.2832,1.82456 -2.03793,1.36042 -4.91161,2.81225 -8.60552,4.34568 -4.0377,1.67614 -8.94039,3.40235 -14.5425,5.16002 -12.11483,3.80104 -26.76378,7.51797 -40.62185,10.77172 -1.76442,0.41427 -6.96568,2.98383 -8.86972,3.41397 z"
       id="path958-6"
       inkscape:path-effect="#path-effect4455"
       inkscape:original-d="m 105.63253,153.24833 c 173.75097,-39.25164 -0.2698,-39.87507 -0.2698,-39.87507"
       sodipodi:nodetypes="cc" />
    <path
       style="fill:#000000;fill-opacity:1;fill-rule:nonzero;stroke:none;stroke-width:1;stroke-linecap:butt;stroke-linejoin:miter;stroke-miterlimit:4;stroke-dasharray:none;stroke-opacity:1;marker-start:url(#marker4072-5-6)"
       d="m 164.97336,192.53688 c 1.90404,-0.43014 7.69101,-0.39472 9.44566,-0.80964 13.75419,-3.25239 28.08911,-7.03414 39.21426,-10.91935 5.14926,-1.79827 9.51643,-3.58507 12.88415,-5.34236 1.5642,-0.8162 2.91606,-1.62765 4.03583,-2.43481 1.07671,-0.77612 1.95704,-1.56123 2.60666,-2.35944 0.31853,-0.39139 0.58644,-0.79185 0.79459,-1.20171 0.20564,-0.40494 0.35412,-0.82194 0.4333,-1.24673 0.0786,-0.42171 0.0877,-0.84371 0.0237,-1.26076 -0.0632,-0.4119 -0.19539,-0.80484 -0.3865,-1.1767 -0.37396,-0.72762 -0.96797,-1.36521 -1.70461,-1.93093 -0.72663,-0.55803 -1.62329,-1.07006 -2.66049,-1.54465 -2.03748,-0.93229 -4.69471,-1.75465 -7.83802,-2.48537 -3.10777,-0.72246 -6.69933,-1.35709 -10.63746,-1.9147 -7.91283,-1.1204 -17.14591,-1.91854 -26.4069,-2.48671 -9.65658,-0.59243 -19.31642,-0.9332 -27.50459,-1.12962 -10.50032,-0.25188 -19.13662,-0.28053 -23.794,-0.27166 -4.92225,0.009 -6.60059,0.0525 -6.60059,0.0525 h 0 c 0,0 1.67872,0.0129 6.59941,0.0992 4.5241,0.0794 13.42034,0.25844 23.77813,0.66169 8.17138,0.31813 17.83438,0.79724 27.45675,1.53086 9.24142,0.70459 18.42622,1.64233 26.26786,2.89668 3.90268,0.62427 7.43449,1.3209 10.46664,2.09712 3.07976,0.78841 5.58902,1.64514 7.44347,2.56603 0.94161,0.46759 1.6891,0.9394 2.24981,1.40828 0.57237,0.47863 0.9162,0.92584 1.09365,1.32674 0.0888,0.20051 0.13628,0.38991 0.15225,0.57109 0.0161,0.18254 0.001,0.37059 -0.0476,0.56883 -0.0501,0.20293 -0.13781,0.42386 -0.2754,0.66652 -0.13989,0.24673 -0.32978,0.51261 -0.57885,0.79707 -0.51333,0.58626 -1.25193,1.2219 -2.24388,1.9022 -1.02584,0.70354 -2.29318,1.4348 -3.80192,2.1914 -3.25393,1.63177 -7.52056,3.32655 -12.62796,5.06352 -11.0413,3.75501 -25.26699,7.45427 -39.00711,10.70334 -1.7491,0.4136 -6.92623,2.98195 -8.83027,3.41209 z"
       id="path958-6-1"
       inkscape:path-effect="#path-effect4583"
       inkscape:original-d="m 164.97336,192.53688 c 173.75097,-39.25164 -38.095,-38.46265 -38.095,-38.46265"
       sodipodi:nodetypes="cc" />
  </g>
</svg>
