<?xml version="1.0" encoding="UTF-8" standalone="no"?>
<svg
   xmlns:dc="http://purl.org/dc/elements/1.1/"
   xmlns:cc="http://creativecommons.org/ns#"
   xmlns:rdf="http://www.w3.org/1999/02/22-rdf-syntax-ns#"
   xmlns:svg="http://www.w3.org/2000/svg"
   xmlns="http://www.w3.org/2000/svg"
   xmlns:sodipodi="http://sodipodi.sourceforge.net/DTD/sodipodi-0.dtd"
   xmlns:inkscape="http://www.inkscape.org/namespaces/inkscape"
   width="100mm"
   height="100mm"
   viewBox="0 0 100 100"
   version="1.1"
   id="svg1727"
   inkscape:version="1.0.2 (e86c870879, 2021-01-15)"
   sodipodi:docname="proto_1.svg">
  <defs
     id="defs1721">
    <rect
       x="0.84885461"
       y="86.638007"
       width="69.519474"
       height="19.602693"
       id="rect3503" />
    <rect
       x="8.0254653"
       y="81.719045"
       width="60.808442"
       height="16.198854"
       id="rect3329" />
    <rect
       x="6.6241341"
       y="83.223061"
       width="45.357422"
       height="15.266187"
       id="rect3223-5" />
    <rect
       x="6.6241341"
       y="83.223061"
       width="45.357422"
       height="15.266187"
       id="rect1637" />
    <marker
       style="overflow:visible"
       id="marker9692-0-8-9"
       refX="0"
       refY="0"
       orient="auto"
       inkscape:stockid="Arrow2Lstart"
       inkscape:isstock="true">
      <path
         transform="matrix(1.1,0,0,1.1,1.1,0)"
         d="M 8.7185878,4.0337352 -2.2072895,0.01601326 8.7185884,-4.0017078 c -1.7454984,2.3720609 -1.7354408,5.6174519 -6e-7,8.035443 z"
         style="fill:#000000;fill-opacity:1;fill-rule:evenodd;stroke:#000000;stroke-width:0.625;stroke-linejoin:round;stroke-opacity:1"
         id="path9690-6-7-4" />
    </marker>
    <marker
       style="overflow:visible"
       id="marker9954-2-9-7"
       refX="0"
       refY="0"
       orient="auto"
       inkscape:stockid="Arrow2Lend"
       inkscape:isstock="true">
      <path
         transform="matrix(-1.1,0,0,-1.1,-1.1,0)"
         d="M 8.7185878,4.0337352 -2.2072895,0.01601326 8.7185884,-4.0017078 c -1.7454984,2.3720609 -1.7354408,5.6174519 -6e-7,8.035443 z"
         style="fill:#000000;fill-opacity:1;fill-rule:evenodd;stroke:#000000;stroke-width:0.625;stroke-linejoin:round;stroke-opacity:1"
         id="path9952-6-2-8" />
    </marker>
    <inkscape:path-effect
       effect="spiro"
       id="path-effect18550"
       is_visible="true"
       lpeversion="1" />
    <marker
       style="overflow:visible"
       id="marker9692-0-8-1"
       refX="0"
       refY="0"
       orient="auto"
       inkscape:stockid="Arrow2Lstart"
       inkscape:isstock="true">
      <path
         transform="matrix(1.1,0,0,1.1,1.1,0)"
         d="M 8.7185878,4.0337352 -2.2072895,0.01601326 8.7185884,-4.0017078 c -1.7454984,2.3720609 -1.7354408,5.6174519 -6e-7,8.035443 z"
         style="fill:#000000;fill-opacity:1;fill-rule:evenodd;stroke:#000000;stroke-width:0.625;stroke-linejoin:round;stroke-opacity:1"
         id="path9690-6-7-2" />
    </marker>
    <marker
       style="overflow:visible"
       id="marker9954-2-9-9"
       refX="0"
       refY="0"
       orient="auto"
       inkscape:stockid="Arrow2Lend"
       inkscape:isstock="true">
      <path
         transform="matrix(-1.1,0,0,-1.1,-1.1,0)"
         d="M 8.7185878,4.0337352 -2.2072895,0.01601326 8.7185884,-4.0017078 c -1.7454984,2.3720609 -1.7354408,5.6174519 -6e-7,8.035443 z"
         style="fill:#000000;fill-opacity:1;fill-rule:evenodd;stroke:#000000;stroke-width:0.625;stroke-linejoin:round;stroke-opacity:1"
         id="path9952-6-2-3" />
    </marker>
    <inkscape:path-effect
       effect="spiro"
       id="path-effect18240"
       is_visible="true"
       lpeversion="1" />
    <marker
       style="overflow:visible"
       id="marker19958"
       refX="0"
       refY="0"
       orient="auto"
       inkscape:stockid="Arrow2Lstart"
       inkscape:isstock="true">
      <path
         transform="matrix(1.1,0,0,1.1,1.1,0)"
         d="M 8.7185878,4.0337352 -2.2072895,0.01601326 8.7185884,-4.0017078 c -1.7454984,2.3720609 -1.7354408,5.6174519 -6e-7,8.035443 z"
         style="fill:#000000;fill-opacity:1;fill-rule:evenodd;stroke:#000000;stroke-width:0.625;stroke-linejoin:round;stroke-opacity:1"
         id="path19956" />
    </marker>
    <rect
       x="60.320076"
       y="27.331001"
       width="61.250828"
       height="12.697482"
       id="rect3497" />
    <rect
       x="60.320076"
       y="27.331001"
       width="61.250828"
       height="12.697482"
       id="rect1652" />
    <rect
       x="36.184071"
       y="84.081573"
       width="56.881611"
       height="13.050641"
       id="rect3485" />
    <rect
       x="36.184071"
       y="84.081573"
       width="56.881611"
       height="13.050641"
       id="rect1655" />
    <marker
       style="overflow:visible"
       id="marker19786"
       refX="0"
       refY="0"
       orient="auto"
       inkscape:stockid="Arrow2Lstart"
       inkscape:isstock="true">
      <path
         transform="matrix(1.1,0,0,1.1,1.1,0)"
         d="M 8.7185878,4.0337352 -2.2072895,0.01601326 8.7185884,-4.0017078 c -1.7454984,2.3720609 -1.7354408,5.6174519 -6e-7,8.035443 z"
         style="fill:#000000;fill-opacity:1;fill-rule:evenodd;stroke:#000000;stroke-width:0.625;stroke-linejoin:round;stroke-opacity:1"
         id="path19784" />
    </marker>
    <rect
       x="64.842667"
       y="31.447924"
       width="33.149277"
       height="10.074286"
       id="rect3217" />
    <rect
       x="64.842667"
       y="31.447924"
       width="33.149277"
       height="10.074286"
       id="rect1660" />
    <marker
       style="overflow:visible"
       id="marker19968"
       refX="0"
       refY="0"
       orient="auto"
       inkscape:stockid="Arrow2Lstart"
       inkscape:isstock="true">
      <path
         transform="matrix(1.1,0,0,1.1,1.1,0)"
         d="M 8.7185878,4.0337352 -2.2072895,0.01601326 8.7185884,-4.0017078 c -1.7454984,2.3720609 -1.7354408,5.6174519 -6e-7,8.035443 z"
         style="fill:#000000;fill-opacity:1;fill-rule:evenodd;stroke:#000000;stroke-width:0.625;stroke-linejoin:round;stroke-opacity:1"
         id="path19966" />
    </marker>
    <marker
       style="overflow:visible"
       id="marker20976"
       refX="0"
       refY="0"
       orient="auto"
       inkscape:stockid="Arrow2Lend"
       inkscape:isstock="true">
      <path
         transform="matrix(-1.1,0,0,-1.1,-1.1,0)"
         d="M 8.7185878,4.0337352 -2.2072895,0.01601326 8.7185884,-4.0017078 c -1.7454984,2.3720609 -1.7354408,5.6174519 -6e-7,8.035443 z"
         style="fill:#000000;fill-opacity:1;fill-rule:evenodd;stroke:#000000;stroke-width:0.625;stroke-linejoin:round;stroke-opacity:1"
         id="path20974" />
    </marker>
    <marker
       style="overflow:visible"
       id="marker19460"
       refX="0"
       refY="0"
       orient="auto"
       inkscape:stockid="Arrow2Lstart"
       inkscape:isstock="true">
      <path
         transform="matrix(1.1,0,0,1.1,1.1,0)"
         d="M 8.7185878,4.0337352 -2.2072895,0.01601326 8.7185884,-4.0017078 c -1.7454984,2.3720609 -1.7354408,5.6174519 -6e-7,8.035443 z"
         style="fill:#000000;fill-opacity:1;fill-rule:evenodd;stroke:#000000;stroke-width:0.625;stroke-linejoin:round;stroke-opacity:1"
         id="path19458" />
    </marker>
    <marker
       style="overflow:visible"
       id="marker20342"
       refX="0"
       refY="0"
       orient="auto"
       inkscape:stockid="Arrow2Lend"
       inkscape:isstock="true">
      <path
         transform="matrix(-1.1,0,0,-1.1,-1.1,0)"
         d="M 8.7185878,4.0337352 -2.2072895,0.01601326 8.7185884,-4.0017078 c -1.7454984,2.3720609 -1.7354408,5.6174519 -6e-7,8.035443 z"
         style="fill:#000000;fill-opacity:1;fill-rule:evenodd;stroke:#000000;stroke-width:0.625;stroke-linejoin:round;stroke-opacity:1"
         id="path20340" />
    </marker>
    <marker
       style="overflow:visible"
       id="marker19978"
       refX="0"
       refY="0"
       orient="auto"
       inkscape:stockid="Arrow2Lstart"
       inkscape:isstock="true">
      <path
         transform="matrix(1.1,0,0,1.1,1.1,0)"
         d="M 8.7185878,4.0337352 -2.2072895,0.01601326 8.7185884,-4.0017078 c -1.7454984,2.3720609 -1.7354408,5.6174519 -6e-7,8.035443 z"
         style="fill:#000000;fill-opacity:1;fill-rule:evenodd;stroke:#000000;stroke-width:0.625;stroke-linejoin:round;stroke-opacity:1"
         id="path19976" />
    </marker>
    <marker
       style="overflow:visible"
       id="marker20986"
       refX="0"
       refY="0"
       orient="auto"
       inkscape:stockid="Arrow2Lend"
       inkscape:isstock="true">
      <path
         transform="matrix(-1.1,0,0,-1.1,-1.1,0)"
         d="M 8.7185878,4.0337352 -2.2072895,0.01601326 8.7185884,-4.0017078 c -1.7454984,2.3720609 -1.7354408,5.6174519 -6e-7,8.035443 z"
         style="fill:#000000;fill-opacity:1;fill-rule:evenodd;stroke:#000000;stroke-width:0.625;stroke-linejoin:round;stroke-opacity:1"
         id="path20984" />
    </marker>
    <marker
       style="overflow:visible"
       id="marker19620"
       refX="0"
       refY="0"
       orient="auto"
       inkscape:stockid="Arrow2Lstart"
       inkscape:isstock="true">
      <path
         transform="matrix(1.1,0,0,1.1,1.1,0)"
         d="M 8.7185878,4.0337352 -2.2072895,0.01601326 8.7185884,-4.0017078 c -1.7454984,2.3720609 -1.7354408,5.6174519 -6e-7,8.035443 z"
         style="fill:#000000;fill-opacity:1;fill-rule:evenodd;stroke:#000000;stroke-width:0.625;stroke-linejoin:round;stroke-opacity:1"
         id="path19618" />
    </marker>
    <marker
       style="overflow:visible"
       id="marker20532"
       refX="0"
       refY="0"
       orient="auto"
       inkscape:stockid="Arrow2Lend"
       inkscape:isstock="true">
      <path
         transform="matrix(-1.1,0,0,-1.1,-1.1,0)"
         d="M 8.7185878,4.0337352 -2.2072895,0.01601326 8.7185884,-4.0017078 c -1.7454984,2.3720609 -1.7354408,5.6174519 -6e-7,8.035443 z"
         style="fill:#000000;fill-opacity:1;fill-rule:evenodd;stroke:#000000;stroke-width:0.625;stroke-linejoin:round;stroke-opacity:1"
         id="path20530" />
    </marker>
    <rect
       x="29.57696"
       y="5.1730356"
       width="54.097752"
       height="17.282492"
       id="rect942" />
    <rect
       x="29.57696"
       y="5.1730356"
       width="54.097752"
       height="17.282492"
       id="rect1679" />
    <marker
       style="overflow:visible"
       id="marker9692-0-8"
       refX="0"
       refY="0"
       orient="auto"
       inkscape:stockid="Arrow2Lstart"
       inkscape:isstock="true">
      <path
         transform="matrix(1.1,0,0,1.1,1.1,0)"
         d="M 8.7185878,4.0337352 -2.2072895,0.01601326 8.7185884,-4.0017078 c -1.7454984,2.3720609 -1.7354408,5.6174519 -6e-7,8.035443 z"
         style="fill:#000000;fill-opacity:1;fill-rule:evenodd;stroke:#000000;stroke-width:0.625;stroke-linejoin:round;stroke-opacity:1"
         id="path9690-6-7" />
    </marker>
    <marker
       style="overflow:visible"
       id="marker9954-2-9"
       refX="0"
       refY="0"
       orient="auto"
       inkscape:stockid="Arrow2Lend"
       inkscape:isstock="true">
      <path
         transform="matrix(-1.1,0,0,-1.1,-1.1,0)"
         d="M 8.7185878,4.0337352 -2.2072895,0.01601326 8.7185884,-4.0017078 c -1.7454984,2.3720609 -1.7354408,5.6174519 -6e-7,8.035443 z"
         style="fill:#000000;fill-opacity:1;fill-rule:evenodd;stroke:#000000;stroke-width:0.625;stroke-linejoin:round;stroke-opacity:1"
         id="path9952-6-2" />
    </marker>
    <inkscape:path-effect
       effect="spiro"
       id="path-effect11195"
       is_visible="true"
       lpeversion="1" />
    <rect
       x="8.025465"
       y="81.719048"
       width="60.808441"
       height="16.198854"
       id="rect3329-3" />
    <rect
       x="8.025465"
       y="81.719048"
       width="60.808441"
       height="16.198854"
       id="rect3400" />
    <rect
       x="8.025465"
       y="81.719048"
       width="60.808441"
       height="16.198854"
       id="rect3329-3-7" />
    <rect
       x="8.025465"
       y="81.719048"
       width="60.808441"
       height="16.198854"
       id="rect3436" />
    <rect
       x="8.025465"
       y="81.719048"
       width="60.808441"
       height="16.198854"
       id="rect3329-3-7-3" />
    <rect
       x="8.025465"
       y="81.719048"
       width="60.808441"
       height="16.198854"
       id="rect3473" />
    <rect
       x="0.8488546"
       y="86.638008"
       width="69.51947"
       height="19.602694"
       id="rect3503-6" />
    <rect
       x="0.8488546"
       y="86.638008"
       width="69.51947"
       height="19.602694"
       id="rect3530" />
    <rect
       x="0.8488546"
       y="86.638008"
       width="69.51947"
       height="19.602694"
       id="rect3503-9" />
    <rect
       x="0.8488546"
       y="86.638008"
       width="69.51947"
       height="19.602694"
       id="rect3530-1" />
    <rect
       x="0.8488546"
       y="86.638008"
       width="69.51947"
       height="19.602694"
       id="rect3503-0" />
    <rect
       x="0.8488546"
       y="86.638008"
       width="69.51947"
       height="19.602694"
       id="rect3530-9" />
    <rect
       x="0.8488546"
       y="86.638008"
       width="69.51947"
       height="19.602694"
       id="rect3503-60" />
    <rect
       x="0.8488546"
       y="86.638008"
       width="69.51947"
       height="19.602694"
       id="rect3530-6" />
    <rect
       x="0.8488546"
       y="86.638008"
       width="69.51947"
       height="19.602694"
       id="rect3503-04" />
    <rect
       x="0.8488546"
       y="86.638008"
       width="69.51947"
       height="19.602694"
       id="rect4930" />
    <rect
       x="0.8488546"
       y="86.638008"
       width="69.51947"
       height="19.602694"
       id="rect3503-04-9" />
    <rect
       x="0.8488546"
       y="86.638008"
       width="69.51947"
       height="19.602694"
       id="rect4966" />
    <rect
       x="0.8488546"
       y="86.638008"
       width="69.51947"
       height="19.602694"
       id="rect3503-04-1" />
    <rect
       x="0.8488546"
       y="86.638008"
       width="69.51947"
       height="19.602694"
       id="rect4966-0" />
    <rect
       x="0.8488546"
       y="86.638008"
       width="69.51947"
       height="19.602694"
       id="rect3503-04-2" />
    <rect
       x="0.8488546"
       y="86.638008"
       width="69.51947"
       height="19.602694"
       id="rect4966-2" />
  </defs>
  <sodipodi:namedview
     id="base"
     pagecolor="#ffffff"
     bordercolor="#666666"
     borderopacity="1.0"
     inkscape:pageopacity="0.0"
     inkscape:pageshadow="2"
     inkscape:zoom="2.8"
     inkscape:cx="145.31449"
     inkscape:cy="231.40168"
     inkscape:document-units="mm"
     inkscape:current-layer="layer1"
     inkscape:document-rotation="0"
     showgrid="false"
     showguides="true"
     inkscape:guide-bbox="true"
     inkscape:window-width="1916"
     inkscape:window-height="2121"
     inkscape:window-x="3840"
     inkscape:window-y="18"
     inkscape:window-maximized="1">
    <sodipodi:guide
       position="10.016369,53.886904"
       orientation="1,0"
       id="guide3333" />
    <sodipodi:guide
       position="36.66369,41.791666"
       orientation="1,0"
       id="guide3335" />
    <sodipodi:guide
       position="63.5,28.5625"
       orientation="1,0"
       id="guide3385" />
    <sodipodi:guide
       position="90.147321,23.365327"
       orientation="1,0"
       id="guide3387" />
    <sodipodi:guide
       position="-83.81622,18.357143"
       orientation="0,-1"
       id="guide3389" />
    <sodipodi:guide
       position="-66.901785,10.13616"
       orientation="0,-1"
       id="guide3519" />
  </sodipodi:namedview>
  <metadata
     id="metadata1724">
    <rdf:RDF>
      <cc:Work
         rdf:about="">
        <dc:format>image/svg+xml</dc:format>
        <dc:type
           rdf:resource="http://purl.org/dc/dcmitype/StillImage" />
        <dc:title />
      </cc:Work>
    </rdf:RDF>
  </metadata>
  <g
     inkscape:label="Layer 1"
     inkscape:groupmode="layer"
     id="layer1">
    <rect
       style="fill:#c0c0c0;fill-opacity:0.528156;stroke:#000000;stroke-width:0.4;stroke-linejoin:round;stroke-opacity:1"
       id="rect833"
       width="49.599998"
       height="24.6"
       x="25.363735"
       y="3.1249278"
       ry="7.3056979"
       rx="7.3056979" />
    <rect
       style="fill:#c0c0c0;fill-opacity:0.528156;stroke:#000000;stroke-width:0.4;stroke-linejoin:round;stroke-opacity:1"
       id="rect833-3"
       width="19.6"
       height="24.6"
       x="0.36373386"
       y="53.124928"
       ry="7.3056979"
       rx="7.3056979" />
    <rect
       style="fill:#c0c0c0;fill-opacity:0.528156;stroke:#000000;stroke-width:0.4;stroke-linejoin:round;stroke-opacity:1"
       id="rect833-3-5"
       width="19.6"
       height="24.6"
       x="80.363731"
       y="53.124928"
       ry="7.3056979"
       rx="7.3056979" />
    <rect
       style="fill:#c0c0c0;fill-opacity:0.528156;stroke:#000000;stroke-width:0.4;stroke-linejoin:round;stroke-opacity:1"
       id="rect833-3-6"
       width="19.6"
       height="24.6"
       x="53.697033"
       y="53.124928"
       ry="7.3056979"
       rx="7.3056979" />
    <rect
       style="fill:#c0c0c0;fill-opacity:0.528156;stroke:#000000;stroke-width:0.4;stroke-linejoin:round;stroke-opacity:1"
       id="rect833-3-2"
       width="19.6"
       height="24.6"
       x="27.030331"
       y="53.124928"
       ry="7.3056979"
       rx="7.3056979" />
    <text
       xml:space="preserve"
       id="text940"
       style="font-style:normal;font-weight:normal;font-size:8.46667px;line-height:1.25;font-family:sans-serif;letter-spacing:0px;word-spacing:0px;white-space:pre;shape-inside:url(#rect942);fill:#000000;fill-opacity:1;stroke:none;stroke-width:1.03222;"
       transform="matrix(0.93854899,0,0,1,-0.37484431,4.9631051)"><tspan
         x="29.576172"
         y="12.664847"><tspan
           style="shape-inside:url(#rect942)">File System</tspan></tspan></text>
    <rect
       style="fill:#353434;fill-opacity:0.559396;stroke:#000000;stroke-width:0.4;stroke-linejoin:round;stroke-miterlimit:4;stroke-dasharray:0.4, 0.4;stroke-dashoffset:0;stroke-opacity:1"
       id="rect833-3-5-9"
       width="15.599961"
       height="20.59992"
       x="82.363731"
       y="55.125004"
       ry="7.3056984"
       rx="7.3056974" />
    <rect
       style="fill:#353434;fill-opacity:0.559396;stroke:#000000;stroke-width:0.4;stroke-linejoin:round;stroke-miterlimit:4;stroke-dasharray:0.4, 0.4;stroke-dashoffset:0;stroke-opacity:1"
       id="rect833-3-5-9-1"
       width="15.599961"
       height="20.59992"
       x="2.3637338"
       y="55.125004"
       ry="7.3056984"
       rx="7.3056974" />
    <rect
       style="fill:#353434;fill-opacity:0.559396;stroke:#000000;stroke-width:0.4;stroke-linejoin:round;stroke-miterlimit:4;stroke-dasharray:0.4, 0.4;stroke-dashoffset:0;stroke-opacity:1"
       id="rect833-3-5-9-2"
       width="15.599961"
       height="20.59992"
       x="29.03043"
       y="55.125004"
       ry="7.3056984"
       rx="7.3056974" />
    <rect
       style="fill:#353434;fill-opacity:0.559396;stroke:#000000;stroke-width:0.4;stroke-linejoin:round;stroke-miterlimit:4;stroke-dasharray:0.4, 0.4;stroke-dashoffset:0;stroke-opacity:1"
       id="rect833-3-5-9-7"
       width="15.599961"
       height="20.59992"
       x="55.697063"
       y="55.125004"
       ry="7.3056984"
       rx="7.3056974" />
    <path
       style="fill:none;stroke:#000000;stroke-width:0.264999;stroke-linecap:butt;stroke-linejoin:miter;stroke-miterlimit:4;stroke-dasharray:none;stroke-opacity:1;marker-start:url(#marker19620);marker-end:url(#marker20532)"
       d="M 39.79878,29.496425 10.232032,65.080905"
       id="path1026" />
    <path
       style="fill:none;stroke:#000000;stroke-width:0.264999;stroke-linecap:butt;stroke-linejoin:miter;stroke-miterlimit:4;stroke-dasharray:none;stroke-opacity:1;marker-start:url(#marker19978);marker-end:url(#marker20986)"
       d="m 53.368311,29.776735 9.987385,34.85254"
       id="path1026-0" />
    <path
       style="fill:none;stroke:#000000;stroke-width:0.264999;stroke-linecap:butt;stroke-linejoin:miter;stroke-miterlimit:4;stroke-dasharray:none;stroke-opacity:1;marker-start:url(#marker19460);marker-end:url(#marker20342)"
       d="M 47.337836,29.817995 36.949244,64.722765"
       id="path1026-8" />
    <path
       style="fill:none;stroke:#000000;stroke-width:0.264999;stroke-linecap:butt;stroke-linejoin:miter;stroke-miterlimit:4;stroke-dasharray:none;stroke-opacity:1;marker-start:url(#marker19968);marker-end:url(#marker20976)"
       d="M 90.083436,65.114855 60.165304,29.492555"
       id="path1026-3" />
    <text
       xml:space="preserve"
       id="text3215"
       style="font-style:normal;font-weight:normal;font-size:8.46667px;line-height:1.25;font-family:sans-serif;letter-spacing:0px;word-spacing:0px;white-space:pre;shape-inside:url(#rect3217);fill:#000000;fill-opacity:1;stroke:none;stroke-width:1.32518;"
       transform="matrix(0.75461708,0,0,0.75461708,-44.683106,12.630121)"><tspan
         x="64.841797"
         y="38.938284"><tspan
           style="font-size:8.46667px;stroke-width:1.32518">I/O ops.</tspan></tspan></text>
    <text
       xml:space="preserve"
       id="text3327"
       style="font-style:normal;font-weight:normal;font-size:10.5833px;line-height:1.25;font-family:sans-serif;letter-spacing:0px;word-spacing:0px;white-space:pre;shape-inside:url(#rect3329);fill:#000000;fill-opacity:1;stroke:none;stroke-width:1.7886;"
       transform="matrix(0.55909616,0,0,0.55909616,-3.565253,32.758681)"><tspan
         x="8.0253906"
         y="91.08249"><tspan
           style="stroke-width:1.7886">node1</tspan></tspan></text>
    <text
       xml:space="preserve"
       id="text3327-6"
       style="font-style:normal;font-weight:normal;font-size:10.5833px;line-height:1.25;font-family:sans-serif;letter-spacing:0px;word-spacing:0px;white-space:pre;shape-inside:url(#rect3329-3);fill:#000000;fill-opacity:1;stroke:none;stroke-width:1.7886;"
       transform="matrix(0.55909616,0,0,0.55909616,22.971158,32.738335)"><tspan
         x="8.0253906"
         y="91.08249"><tspan
           style="stroke-width:1.7886">node2</tspan></tspan></text>
    <text
       xml:space="preserve"
       id="text3327-6-5"
       style="font-style:normal;font-weight:normal;font-size:10.5833px;line-height:1.25;font-family:sans-serif;letter-spacing:0px;word-spacing:0px;white-space:pre;shape-inside:url(#rect3329-3-7);fill:#000000;fill-opacity:1;stroke:none;stroke-width:1.7886;"
       transform="matrix(0.55909616,0,0,0.55909616,49.924473,32.909792)"><tspan
         x="8.0253906"
         y="91.08249"><tspan
           style="stroke-width:1.7886">node3</tspan></tspan></text>
    <text
       xml:space="preserve"
       id="text3327-6-5-5"
       style="font-style:normal;font-weight:normal;font-size:10.5833px;line-height:1.25;font-family:sans-serif;letter-spacing:0px;word-spacing:0px;white-space:pre;shape-inside:url(#rect3329-3-7-3);fill:#000000;fill-opacity:1;stroke:none;stroke-width:1.7886;"
       transform="matrix(0.55909616,0,0,0.55909616,76.420642,33.017022)"><tspan
         x="8.0253906"
         y="91.08249"><tspan
           style="stroke-width:1.7886">node4</tspan></tspan></text>
    <text
       xml:space="preserve"
       id="text3501-2"
       style="font-style:normal;font-weight:normal;font-size:10.5833px;line-height:1.25;font-family:sans-serif;letter-spacing:0px;word-spacing:0px;white-space:pre;shape-inside:url(#rect3503-04);fill:#000000;fill-opacity:1;stroke:none;stroke-width:1.9969;"
       transform="matrix(0.50077738,0,0,0.50077738,-0.15170611,43.64827)"><tspan
         x="0.84960938"
         y="96.002412"><tspan
           style="stroke-width:1.9969">slots=1</tspan></tspan></text>
    <text
       xml:space="preserve"
       id="text3501-2-6"
       style="font-style:normal;font-weight:normal;font-size:10.5833px;line-height:1.25;font-family:sans-serif;letter-spacing:0px;word-spacing:0px;white-space:pre;shape-inside:url(#rect3503-04-9);fill:#000000;fill-opacity:1;stroke:none;stroke-width:1.9969;"
       transform="matrix(0.50077738,0,0,0.50077738,26.040041,43.695174)"><tspan
         x="0.84960938"
         y="96.002412"><tspan
           style="stroke-width:1.9969">slots=1</tspan></tspan></text>
    <text
       xml:space="preserve"
       id="text3501-2-4"
       style="font-style:normal;font-weight:normal;font-size:10.5833px;line-height:1.25;font-family:sans-serif;letter-spacing:0px;word-spacing:0px;white-space:pre;shape-inside:url(#rect3503-04-1);fill:#000000;fill-opacity:1;stroke:none;stroke-width:1.9969;"
       transform="matrix(0.50077738,0,0,0.50077738,53.012537,43.910306)"><tspan
         x="0.84960938"
         y="96.002412"><tspan
           style="stroke-width:1.9969">slots=1</tspan></tspan></text>
    <text
       xml:space="preserve"
       id="text3501-2-2"
       style="font-style:normal;font-weight:normal;font-size:10.5833px;line-height:1.25;font-family:sans-serif;letter-spacing:0px;word-spacing:0px;white-space:pre;shape-inside:url(#rect3503-04-2);fill:#000000;fill-opacity:1;stroke:none;stroke-width:1.9969;"
       transform="matrix(0.50077738,0,0,0.50077738,79.831774,43.591099)"><tspan
         x="0.84960938"
         y="96.002412"><tspan
           style="stroke-width:1.9969">slots=1</tspan></tspan></text>
  </g>
</svg>
